elizna_military = {
    slot = 1            
    generic = no
    ai = yes	               
    potential = {
		OR = {
			tag = U05
			AND = {
				tag = F38
				was_tag = U05
			}
		}	
    }
	has_country_shield = yes

    elizna_new_generation = {
        icon = mission_swear_fealty_knight
        required_missions = {  }
		position = 1

        trigger = {
            mil_tech = 5
			NOT = {
				manpower_percentage = 0.5
			}
        }
        
        effect = {
			add_country_modifier = {
				name = U05_novitiate_legionnaires
				duration = 18250 #50 Years
			}
        }
	}
	
	elizna_human_auxiliaries = {
        icon = mission_african_soldier
        required_missions = { elizna_new_generation }
		position = 2
        
        provinces_to_highlight = {
            
        }

        trigger = {
            num_of_mercenaries = 10
        }
        
        effect = {
			add_country_modifier = {
				name = U05_human_auxiliaries_1
				duration = -1
			}
        }
	}
	
	elizna_integrate_humans = {
        icon = mission_egyptian_mamluk_soldier
        required_missions = { elizna_human_auxiliaries }
		position = 3
        
        provinces_to_highlight = {
			owned_by = U05
			culture = kheteratan
			NOT = {
				AND = {
				has_manpower_building_trigger = yes
				base_manpower = 3
				}
			}
        }

        trigger = {
			accepted_culture = kheteratan
            num_of_owned_provinces_with = {
				value = 10
				culture = kheteratan
				has_manpower_building_trigger = yes
				base_manpower = 3
			}
        }
        
        effect = {
			if = {
				limit = { NOT = { has_country_modifier = human_military } }

				clear_racial_military = yes
				
				add_country_modifier = { 
					name = restructuring_military
					duration = 1825
				}
				add_country_modifier = { 
					name = human_military
					duration = -1  
				}
				change_unit_type = tech_salahadesi
			}
			remove_country_modifier =  U05_human_auxiliaries_1 
			add_country_modifier = {
				name = U05_human_auxiliaries_2
				duration = -1
			}
			set_country_flag = elizna_elven_legionnaires_flag
			custom_tooltip = elizna_elven_legionnaires_tooltip
        }
	}
	
	elizna_role_of_elves = {
        icon = mission_conquer_5_states
        required_missions = { elizna_integrate_humans }
		position = 4
        
        provinces_to_highlight = {
			OR = {
				province_id = 494
				province_id = 496
				province_id = 578
				province_id = 573
			}
        }

        trigger = {
            treasury = 200
			mil_power = 200
			494 = {
				base_manpower = 5
				has_manpower_building_trigger = yes
				has_dock_building_trigger = yes
			}
			496 = {
				base_manpower = 5
				has_manpower_building_trigger = yes
				has_dock_building_trigger = yes
			}
			573 = {
				base_manpower = 5
				has_manpower_building_trigger = yes
				has_dock_building_trigger = yes
			}
			578 = {
				base_manpower = 5
				has_manpower_building_trigger = yes
				has_dock_building_trigger = yes
			}
        }
        
        effect = {
			add_mil_power = -200
			add_treasury = -200
			add_country_modifier = {
				name = U05_elven_navy
				duration = -1
			}
			add_country_modifier = {
				name = U05_elite_elves
				duration = -1
			}
        }
	}
	
	elizna_elven_officers_human_soldiers = {
        icon = mission_indian_stateman
        required_missions = { elizna_role_of_elves }
		position = 5
        
        provinces_to_highlight = {
			
        }

        trigger = {
            mil_tech = 9
			army_size = 40
			army_tradition = 65
        }
        
        effect = {
			add_country_modifier = {
				name = U05_elven_officers
				duration = 18250 #50 Years
			}
        }
	}
}

elizna_bulwar = {
    slot = 2            
    generic = no
    ai = yes	               
    potential = {
        OR = {
			tag = U05
			AND = {
				   tag = F38
				was_tag = U05
			}
		}
    }
	has_country_shield = yes
	
	elizna_secure_brasan = {
        icon = mission_guarded_market
        required_missions = {  }
		position = 1
		
		provinces_to_highlight = {
			OR = {
				area = upper_brasan_area
				area = lower_brasan_area
				area =	outer_brasan_area
			}
			NOT = { country_or_non_sovereign_subject_holds = ROOT }
        }

        trigger = {
            upper_brasan_area = {
				type = all
				country_or_non_sovereign_subject_holds = ROOT
			}
			lower_brasan_area = {
				type = all
				country_or_non_sovereign_subject_holds = ROOT
			}
			outer_brasan_area = {
				type = all
				country_or_non_sovereign_subject_holds = ROOT
			}
			treasury = 100
        }
        
        effect = {
			682 = {
				add_building_construction = {
					building = fort_15th
					speed = 1.0
					cost = 0.5
				}
			}
			irrliam_area = {
				add_permanent_claim = ROOT
			}
			anzabad_area = {
				add_permanent_claim = ROOT
			}
        }
	}
	
	elizna_eradicate_taelerios = {
        icon = mission_sunset
        required_missions = { elizna_secure_brasan }
		position = 2
		
		provinces_to_highlight = {
			OR = {
				area = irrliam_area
				area = anzabad_area
			}
			NOT = { country_or_non_sovereign_subject_holds = ROOT }
        }

        trigger = {
            irrliam_area = {
				type = all
				country_or_non_sovereign_subject_holds = ROOT
			}
			anzabad_area = {
				type = all
				country_or_non_sovereign_subject_holds = ROOT
			}
			NOT = {
				exists = F37
			}
        }
        
        effect = {
			sur_mountains_area = {
				add_permanent_claim = ROOT
			}
			garpix_ukraz_area = {
				add_permanent_claim = ROOT
			}
			garpix_tluukt_area = {
				add_permanent_claim = ROOT
			}
			grixekyr_area = {
				add_permanent_claim = ROOT
			}
			zansap_area = {
				add_permanent_claim = ROOT
			}
        }
	}
	
	elizna_liberate_sad_sur = {
        icon = mission_sun_temple
        required_missions = { elizna_eradicate_taelerios }
		position = 3
		
		provinces_to_highlight = {
			OR = {
				area = sur_mountains_area
				area = garpix_ukraz_area
				area = garpix_tluukt_area
				area = grixekyr_area
				area = zansap_area
			}
			NOT = { country_or_non_sovereign_subject_holds = ROOT }
        }

        trigger = {
           sur_mountains_area = {
				type = all
				country_or_non_sovereign_subject_holds = ROOT
			}
			garpix_ukraz_area = {
				type = all
				country_or_non_sovereign_subject_holds = ROOT
			}
			garpix_tluukt_area = {
				type = all
				country_or_non_sovereign_subject_holds = ROOT
			}
			grixekyr_area = {
				type = all
				country_or_non_sovereign_subject_holds = ROOT
			}
			zansap_area = {
				type = all
				country_or_non_sovereign_subject_holds = ROOT
			}
        }
        
        effect = {
			add_country_modifier = {
				name = U05_protector_against_darkness
				duration = 7300 #20 Years
			}
			imuluses_area = {
				add_permanent_claim = ROOT
			}
			kuz_mountains_area = {
				add_permanent_claim = ROOT
			}
        }
	}
	
	elizna_beat_birsartanses = {
        icon = mission_moon_moon
        required_missions = { elizna_liberate_sad_sur }
		position = 4
		
		provinces_to_highlight = {
			OR = {
				area = kuz_mountains_area
				area = imuluses_area
			}
			NOT = { country_or_non_sovereign_subject_holds = ROOT }
        }

        trigger = {
            imuluses_area = {
				type = all
				country_or_non_sovereign_subject_holds = ROOT
			}
			kuz_mountains_area = {
				type = all
				country_or_non_sovereign_subject_holds = ROOT
			}
        }
        
        effect = {
			reuyel_area = {
				add_permanent_claim = ROOT
			}
		}
	}
	
	elizna_end_the_rivalry = {
        icon = mission_burning_castle
        required_missions = { elizna_beat_birsartanses }
		position = 5
		
		provinces_to_highlight = {
				area = reuyel_area
        }

        trigger = {
            reuyel_area= {
				type = all
				country_or_non_sovereign_subject_holds = ROOT
			}
			1312 = { #Bahar Trade Node
				trade_share = {
					country = ROOT
					share = 51
				}
			}
			owns_core_province = 463
        }
        
        effect = {
			add_country_modifier = {
				name = U05_hegemon_of_southern_divenhal
				duration = 18250 #50 Years
			}
			521 = {
				add_base_tax = -3
				add_base_production = -3
				add_base_manpower = -3
				add_devastation = 30
				change_trade_goods = fish
			}
			463 = {
				add_base_tax = 2
				add_base_production = 2
				add_base_manpower = 2
				change_trade_goods = paper
			}
		}
	}
	
}

elizna_navy = {
    slot = 3            
    generic = no
    ai = yes	               
    potential = {
        OR = {
			tag = U05
			AND = {
				tag = F38
				was_tag = U05
			}
		}
    }
	has_country_shield = yes
	
	elizna_zornartakel = {
        icon = mission_early_game_buildings
        required_missions = { }
		position = 1
		
		provinces_to_highlight = {
			province_id = 494
        }

        trigger = {
            494 = {
				base_production = 8
				base_manpower = 8
				has_shipyard_building_trigger = yes
				has_dock_building_trigger = yes
			}
			treasury = 200
        }
        
        effect = {
			add_treasury = -200
			494 = {
				add_province_modifier = {
					name = U05_zornartakel
					duration = -1
				}
			}
		}
	}
	
	elizna_reformed_navy = {
        icon = mission_galleys_in_port
        required_missions = { elizna_zornartakel }
		position = 2

        trigger = {
            num_of_light_ship = 20
			num_of_heavy_ship = 10
			manpower = 5
			if = { 
				limit = { 
					OR = {
						has_dlc = "Golden Century"
						has_dlc = "Rule Britannia"
					}
				
				}
				num_of_marines = 2
			}
        }
        
        effect = {
			add_manpower = -5
			add_sailors = 5000
			if = { 
				limit = { 
					OR = {
						has_dlc = "Golden Century"
						has_dlc = "Rule Britannia"
					}
				
				}
				add_country_modifier = {
				name = U05_marines
				duration = -1
				}
			}
		}
	}
	
	elizna_fleet_unopposed = {
        icon = mission_invade_island
        required_missions = { elizna_reformed_navy }
		position = 3
		
		provinces_to_highlight = {
        }

        trigger = {
            all_known_country = {
				NOT = {
					navy_size = U05
				}
			}
			num_of_light_ship = 50
			num_of_heavy_ship = 20
			has_idea = U05_imperial_fleet
        }
        
        effect = { #Add Flagship stuff
			add_country_modifier = {
				name = U05_divenhal_tassalsocrachdwady
				duration = -1
			}
		}
	}
	
	elizna_develop_middle_class = {
        icon = mission_hanseatic_city
        required_missions = { elizna_depose_crodamos }
		position = 4
		
		provinces_to_highlight = {
			AND = {
				OR = {
					area = coast_of_tears_area
					area = mothers_delta_area
					province_id = 471
					province_id = 472
					province_id = 473
					province_id = 474
					province_id = 6088
				}
				NOT = {
					AND = {
						OR = {
							num_of_times_improved_by_owner = 2
							base_production = 7
						}
						has_production_building_trigger = yes
					}
				}
			}
        }

        trigger = {
            num_of_provinces_owned_or_owned_by_non_sovereign_subjects_with = {
				value = 8
				OR = {
					area = coast_of_tears_area
					area = mothers_delta_area
					province_id = 471
					province_id = 472
					province_id = 473
					province_id = 474
					province_id = 6088
				}
				OR = {
					num_of_times_improved_by_owner = 2
				}
				has_production_building_trigger = yes
				owned_by = U05
			}
			has_estate_privilege = estate_burghers_free_enterprise
			employed_advisor = {
				category = DIP
				culture = kheteratan
			}
        }
        
        effect = { 
			add_country_modifier = {
				name = U05_loyal_middle_class
				duration = 7300 #20 Years
			}
			change_estate_land_share = {
				estate = estate_nobles
				share = -10
			}
			change_estate_land_share = {
				estate = estate_burghers
				share = 10
			}
		}
	}
	
	elizna_supplant_nobility = {
        icon = mission_central_asian_city
        required_missions = { elizna_develop_middle_class }
		position = 5
		
		provinces_to_highlight = {
			OR = {
				area = coast_of_tears_area
				area = mothers_delta_area
				province_id = 471
				province_id = 472
				province_id = 473
				province_id = 474
				province_id = 6088
			}
			owned_by = U05
        }

        trigger = {
			num_of_owned_provinces_with = {
				value = 14
				OR = {
					area = coast_of_tears_area
					area = mothers_delta_area
					province_id = 471
					province_id = 472
					province_id = 473
					province_id = 474
					province_id = 6088
				}
				infantry_in_province = 3
			}
			adm_power = 100
			dip_power = 100
			mil_power = 100
        }
        
        effect = { 
			add_treasury = 500
			add_adm_power = -100
			add_dip_power = -100
			add_mil_power = -100
			add_government_reform = elizna_elven_nobility_reform
			custom_tooltip = elizna_supplant_tooltip
				hidden_effect = {
					mothers_delta_area = {
						add_unrest = 10
						add_base_tax = -1
						add_base_production = 1
						add_province_modifier = {
							name = elven_minority_integrated_small
							duration = -1
						}
					}
					coast_of_tears_area = {
						add_unrest = 10
						add_base_tax = -1
						add_base_production = 1
					}
					lower_sorrow_area = {
						add_unrest = 10
						add_base_tax = -1
						add_base_production = 1
					}
					474 = {
						add_unrest = 10
						add_base_tax = -1
						add_base_production = 1
					}
					473 = {
						add_province_modifier = {
							name = elven_minority_integrated_small
							duration = -1
						}
					}
				}
			
		}
	}
}

elizna_kheterata = {
    slot = 4            
    generic = no
    ai = yes	               
    potential = {
        OR = {
			tag = U05
			AND = {
				    tag = F38
					was_tag = U05
			}
		}
    }
	has_country_shield = yes

	elizna_ready_legionnaires = {
        icon = mission_heated_battle
        required_missions = { }
		position = 1
		
		provinces_to_highlight = {
	
        }

        trigger = {
			army_size = U01
			manpower_percentage = 0.5
			num_of_generals = 1
			#add custom tooltip for merc thingie
        }
        
        effect = {
			coast_of_tears_area = {
				add_permanent_claim = ROOT
			}
			mothers_delta_area = {
				add_permanent_claim = ROOT
			}
			lower_sorrow_area = {
				add_permanent_claim = ROOT
			}
			470 = {
				add_permanent_claim = ROOT
			}
			if = { #add merc thingie
				limit = { }
			}
        }
	}	

	elizna_secure_delta = {
        icon = mission_green_village
        required_missions = { elizna_ready_legionnaires }
		position = 2
		
		provinces_to_highlight = {
			OR = {
				area = lower_sorrow_area
				area = mothers_delta_area
				area = coast_of_tears_area
				province_id = 470
			}
			NOT = { country_or_non_sovereign_subject_holds = ROOT }
        }

        trigger = {
			lower_sorrow_area = {
				type = all
				country_or_non_sovereign_subject_holds = ROOT
			}
			mothers_delta_area = {
				type = all
				country_or_non_sovereign_subject_holds = ROOT
			}
			coast_of_tears_area = {
				type = all
				country_or_non_sovereign_subject_holds = ROOT
			}
			owns_core_province = 470
        }
        
        effect = {
			kheterat_proper_area = {
				add_permanent_claim = ROOT
			}
			upper_sorrow_area = {
				add_permanent_claim = ROOT
			}
			ohitsopot_area = {
				add_permanent_claim = ROOT
			}
			garpix_brrtekuh_area = {
				add_permanent_claim = ROOT
			}
			western_krahway_area = {
				add_permanent_claim = ROOT
			}
			add_country_modifier = {
				name = U05_war_enthusiasm
				duration = 3650
			}
        }
	}	
	
	elizna_depose_crodamos = {
        icon = mission_destroyed_city
        required_missions = { elizna_secure_delta }
		position = 3
		
		provinces_to_highlight = {
			OR = {
				area = kheterat_proper_area
				area = upper_sorrow_area
			}
			NOT = { country_or_non_sovereign_subject_holds = ROOT }
        }

        trigger = {
			kheterat_proper_area = {
				type = all
				country_or_non_sovereign_subject_holds = ROOT
			}
			upper_sorrow_area = {
				type = all
				country_or_non_sovereign_subject_holds = ROOT
			}
			owns_core_province = 475
        }
        
        effect = {
			country_event = { id = elizna.1 }
        }
	}	
	
	
	elizna_protect_mothers_sorrow = {
        icon = mission_junk_boat
        required_missions = { elizna_depose_crodamos }
		position = 4
		
		provinces_to_highlight = {
	
        }

        trigger = {
			1305 = { #Mothers Sorrow
				trade_share = {
					country = U05
					share = 51
				}
			}
			463 = {
				if = { 
					limit = { 
						OR = {
							has_dlc = "Dharma"
						}
					
					}
					province_has_center_of_trade_of_level = 3
				}	
				else = {
					has_trade_building_trigger = yes
				}
				has_fort_building_trigger = yes
				has_coastal_defence_building = yes
				owned_by = U05
			}
        }
        
        effect = {
			463 = {
				add_base_production = 3
			}
			464 = {
				add_center_of_trade_level = 1
			}
		}
	}
	
	elizna_stewards_of_kheterata_pe = {
        icon = mission_empire
        required_missions = { elizna_develop_middle_class elizna_depose_crodamos elizna_new_priest }
		position = 5
		
		provinces_to_highlight = {
			region = north_salahad_region
			NOT = { province_id = 453 } 
			NOT = { province_id = 458 }
			OR = {
				NOT = { owned_by = U05 }
				NOT = {
					OR = {
						culture = sun_elf
						culture = kheteratan
					}
				}
			}
        }

        trigger = {
			mission_completed = elizna_supplant_nobility
			mission_completed = elizna_elven_officers_human_soldiers
			mission_completed = elizna_chosen_of_surael
			north_salahad_region = {
				type = all
				OR = {
					AND = {
						owned_by = U05
						OR = {
							culture = sun_elf
							culture = kheteratan
						}
					}
					province_id = 458
					province_id = 453
				}
			}
			OR = {
				legitimacy = 95
				devotion = 100
				republican_tradition = 100
			}
			prestige = 80
			
        }
        
        effect = {
			add_adm_power = 200
			add_mil_power = 200
			add_dip_power = 200
		}
	}
}

elizna_religion = {
    slot = 5            
    generic = no
    ai = yes	               
    potential = {
        OR = {
			tag = U05
			AND = {
				tag = F38
				was_tag = U05
			}
		}
    }
	has_country_shield = yes

	elizna_eliznan_sunrise = {
        icon = mission_dominate_home_trade_node
        required_missions = { }
		position = 1
		
		provinces_to_highlight = {
			province_id = 496
        }

        trigger = {
			496 = {
				base_production = 10
				has_production_building_trigger = yes
			}
        }
        
        effect = {
			496 = {
				add_province_modifier = {
					name = U05_eliznan_sunrise
					duration = -1
				}
			}
        }
	}

	elizna_eliminate_priests = {
        icon = mission_non-western_soldiers
        required_missions = { elizna_ready_legionnaires }
		position = 2
		
		provinces_to_highlight = {
			OR = {
				province_id = 473
				province_id = 472
				province_id = 491
			}
			NOT = { country_or_non_sovereign_subject_holds = ROOT }
        }

        trigger = {
			NOT = {
				exists = U02
			}
			owns_core_province = 473
			owns_core_province = 472
			owns_core_province = 491
        }
        
        effect = {
			add_country_modifier = {
				name = U05_embracing_khetism
				duration = 7300
			}
        }
	}
	
	elizna_secure_western_desert = {
        icon = mission_arabian_fort
        required_missions = { elizna_secure_delta }
		position = 3
		
		provinces_to_highlight = {
			OR = {
				area = ohitsopot_area
				area = western_krahway_area
				area = garpix_brrtekuh_area
			}
			NOT = { country_or_non_sovereign_subject_holds = ROOT }
        }

        trigger = {
			ohitsopot_area = {
				type = all
				country_or_non_sovereign_subject_holds = ROOT
			}
			western_krahway_area = {
				type = all
				OR = {
					country_or_non_sovereign_subject_holds = ROOT
					is_city = no
				}
			} 
			garpix_brrtekuh_area = {
				type = all
				country_or_non_sovereign_subject_holds = ROOT
			}
        }
        
        effect = {
			add_country_modifier = {
				name = U05_expelled_gnolls
				duration = 3650
			}
        }
	}
	
	elizna_new_priest = {
        icon = mission_hands_praying
        required_missions = { elizna_depose_crodamos }
		position = 4
		
		provinces_to_highlight = {
			region = north_salahad_region
			NOT = {
			religion = bulwari_sun_cult
			}
			NOT = { province_id = 453 } 
			NOT = { province_id = 458 }
        }

        trigger = {
			num_of_owned_provinces_with = {
				value = 10
				region = north_salahad_region
				has_tax_building_trigger = yes
			}
			religious_unity = 0.50
        }
        
        effect = {
			country_event = { id = elizna.2 }
        }
	}
	
	elizna_chosen_of_surael = {
        icon = mission_marriage
        required_missions = { elizna_new_priest }
		position = 5
		
		provinces_to_highlight = {
			region = north_salahad_region
			NOT = {
				religion = bulwari_sun_cult
			}
			NOT = { province_id = 453 } 
			NOT = { province_id = 458 }
        }

        trigger = {
			custom_trigger_tooltip = {
				tooltip = nsc_isolationism_level_is_3_tt
				isolationism = 3
			}
			north_salahad_region = {
				type = all
				OR = {
				religion = bulwari_sun_cult
				province_id = 458
				province_id = 453
				}
			}
        }
        
        effect = {
			add_country_modifier = {
				name = U05_vanguard_of_the_sun_cult
				duration = 18250
			}
        }
	}
	
}
