
esmari_sprite_pack = {
	# Tests against every tag in game
	country_trigger = {
		primary_culture = esmari
	}

	sprite_infantry = {
		0 = BAV_INFANTRY_1
		1 = FRA_INFANTRY_2_evup
	}

	sprite_cavalry = {
		0 = BAV_CAVALRY_1
		1 = FRA_CAVALRY_2_evup
	}

	sprite_artillery = {
		0 = BAV_ARTILLERY_1
		1 = FRA_ARTILLERY_2_evup
	}
}

Whitereachman_sprite_pack = {
	# Tests against every tag in game
	country_trigger = {
		primary_culture = white_reachman
	}

	sprite_infantry = {
		0 = LIT_INFANTRY_1
		1 = LIT_INFANTRY_2
		2 = LIT_INFANTRY_3
		3 = LIT_INFANTRY_4
	}

	sprite_cavalry = {
		0 = LIT_CAVALRY_1
		1 = LIT_CAVALRY_2
		2 = LIT_CAVALRY_3
		3 = LIT_CAVALRY_4
	}

	sprite_artillery = {
		0 = LIT_ARTILLERY_1
		1 = LIT_ARTILLERY_2
		2 = LIT_ARTILLERY_3
		3 = LIT_ARTILLERY_4
	}
}

Bluereachman_sprite_pack = {
	# Tests against every tag in game
	country_trigger = {
		primary_culture = blue_reachman
	}

	sprite_infantry = {
		0 = SMO_INFANTRY_1
		1 = UKR_INFANTRY_2
		2 = SMO_INFANTRY_3
		3 = SMO_INFANTRY_4
	}

	sprite_cavalry = {
		0 = SMO_CAVALRY_1
		1 = UKR_CAVALRY_2
		2 = SMO_CAVALRY_3
		3 = SMO_CAVALRY_4
	}

	sprite_artillery = {
		0 = SMO_ARTILLERY_1
		1 = UKR_ARTILLERY_2
		2 = SMO_ARTILLERY_3
		3 = SMO_ARTILLERY_4
	}
}

far_akani_sprite_pack = {
	# Tests against every tag in game
	country_trigger = {
		primary_culture = far_akani
	}

	sprite_infantry = {
		0 = SLE_INFANTRY_1
		1 = SLE_INFANTRY_2
		2 = SLE_INFANTRY_3
		3 = SLE_INFANTRY_4
	}

	sprite_cavalry = {
		0 = SLE_CAVALRY_1
		1 = SLE_CAVALRY_2
		2 = SLE_CAVALRY_3
		3 = SLE_CAVALRY_4
	}

	sprite_artillery = {
		0 = SLE_ARTILLERY_1
		1 = SLE_ARTILLERY_2
		2 = SLE_ARTILLERY_3
		3 = SLE_ARTILLERY_4
	}
}

desha_sprite_pack = {
	# Tests against every tag in game
	country_trigger = {
		OR = {
			primary_culture = desha
			primary_culture = khasani
		}
	}

	sprite_infantry = {
		0 = MAM_INFANTRY_1
		1 = MAM_INFANTRY_2
		2 = MAM_INFANTRY_3
		3 = MAM_INFANTRY_4
	}

	sprite_cavalry = {
		0 = MAM_CAVALRY_1
		1 = MAM_CAVALRY_2
		2 = MAM_CAVALRY_3
		3 = MAM_CAVALRY_4
	}

	sprite_artillery = {
		0 = MAM_ARTILLERY_1
		1 = MAM_ARTILLERY_2
		2 = MAM_ARTILLERY_3
		3 = MAM_ARTILLERY_4
	}
}

Bahari_sprite_pack = {
	# Tests against every tag in game
	country_trigger = {
		primary_culture = bahari
	}

	sprite_infantry = {
		0 = SHM_INFANTRY_1
		1 = TUR_NEW_INFANTRY_2
		2 = TUR_NEW_INFANTRY_3
		3 = TUR_NEW_INFANTRY_4
	}

	sprite_cavalry = {
		0 = SHM_CAVALRY_1
		1 = TUR_NEW_CAVALRY_2
		2 = TUR_NEW_CAVALRY_3
		3 = TUR_NEW_CAVALRY_4
	}

	sprite_artillery = {
		0 = SHM_ARTILLERY_1
		1 = TUR_NEW_ARTILLERY_2
		2 = TUR_NEW_ARTILLERY_3
		3 = TUR_NEW_ARTILLERY_4
	}
}

Brasanni_sprite_pack = {
	# Tests against every tag in game
	country_trigger = {
		primary_culture = brasanni
	}

	sprite_infantry = {
		0 = ADE_INFANTRY_1
		1 = ADE_INFANTRY_2
		2 = ADE_INFANTRY_3
		3 = ADE_INFANTRY_4
	}

	sprite_cavalry = {
		0 = ADE_CAVALRY_1
		1 = ADE_CAVALRY_2
		2 = ADE_CAVALRY_3
		3 = ADE_CAVALRY_4
	}

	sprite_artillery = {
		0 = ADE_ARTILLERY_1
		1 = ADE_ARTILLERY_2
		2 = ADE_ARTILLERY_3
		3 = ADE_ARTILLERY_4
	}
}

Zanite_sprite_pack = {
	# Tests against every tag in game
	country_trigger = {
		primary_culture = zanite
	}

	sprite_infantry = {
		0 = HSN_INFANTRY_1
		1 = HSN_INFANTRY_2
		2 = HSN_INFANTRY_3
		3 = HSN_INFANTRY_4
	}

	sprite_cavalry = {
		0 = HSN_CAVALRY_1
		1 = HSN_CAVALRY_2
		2 = HSN_CAVALRY_3
		3 = HSN_CAVALRY_4
	}

	sprite_artillery = {
		0 = HSN_ARTILLERY_1
		1 = HSN_ARTILLERY_2
		2 = HSN_ARTILLERY_3
		3 = HSN_ARTILLERY_4
	}
}

Zanite_upper_sprite_pack = {
	# Tests against every tag in game
	country_trigger = {
		OR = {
			tag = F33
			tag = F35
			tag = F36
			tag = F41
		}
	}

	sprite_infantry = {
		0 = AKK_INFANTRY_1
		1 = AKK_INFANTRY_2
		2 = AKK_INFANTRY_3
		3 = AKK_INFANTRY_4
	}

	sprite_cavalry = {
		0 = AKK_CAVALRY_1
		1 = AKK_CAVALRY_2
		2 = AKK_CAVALRY_3
		3 = AKK_CAVALRY_4
	}

	sprite_artillery = {
		0 = AKK_ARTILLERY_1
		1 = AKK_ARTILLERY_2
		2 = AKK_ARTILLERY_3
		3 = AKK_ARTILLERY_4
	}
}

gelkalis_sprite_pack = {
	# Tests against every tag in game
	country_trigger = {
		primary_culture = gelkar
	}

	sprite_infantry = {
		0 = QAR_INFANTRY_1
		1 = QAR_INFANTRY_2
		2 = QAR_INFANTRY_3
		3 = QAR_INFANTRY_4
	}

	sprite_cavalry = {
		0 = QAR_CAVALRY_1
		1 = QAR_CAVALRY_2
		2 = QAR_CAVALRY_3
		3 = QAR_CAVALRY_4
	}

	sprite_artillery = {
		0 = QAR_ARTILLERY_1
		1 = QAR_ARTILLERY_2
		2 = QAR_ARTILLERY_3
		3 = QAR_ARTILLERY_4
	}
}

Surani_sprite_pack = {
	# Tests against every tag in game
	country_trigger = {
		primary_culture = surani
	}

	sprite_infantry = {
		0 = NAJ_INFANTRY_1
		1 = NAJ_INFANTRY_2
		2 = NAJ_INFANTRY_3
		3 = NAJ_INFANTRY_4
	}

	sprite_cavalry = {
		0 = NAJ_CAVALRY_1
		1 = NAJ_CAVALRY_2
		2 = NAJ_CAVALRY_3
		3 = NAJ_CAVALRY_4
	}

	sprite_artillery = {
		0 = NAJ_ARTILLERY_1
		1 = NAJ_ARTILLERY_2
		2 = NAJ_ARTILLERY_3
		3 = NAJ_ARTILLERY_4
	}
}

maqet_sprite_pack = {
	# Tests against every tag in game
	country_trigger = {
		primary_culture = maqeti
	}

	sprite_infantry = {
		0 = OMA_INFANTRY_1
		1 = OMA_INFANTRY_2
		2 = OMA_INFANTRY_3
		3 = OMA_INFANTRY_4
	}

	sprite_cavalry = {
		0 = OMA_CAVALRY_1
		1 = OMA_CAVALRY_2
		2 = OMA_CAVALRY_3
		3 = OMA_CAVALRY_4
	}

	sprite_artillery = {
		0 = OMA_ARTILLERY_1
		1 = OMA_ARTILLERY_2
		2 = OMA_ARTILLERY_3
		3 = OMA_ARTILLERY_4
	}
}

raghamidesh_sprite_pack = {
	# Tests against every tag in game
	country_trigger = {
		primary_culture = raghamidesh
	}

	sprite_infantry = {
		0 = GDW_INFANTRY_1
		1 = GDW_INFANTRY_2
		2 = GDW_INFANTRY_3
		3 = GDW_INFANTRY_4
	}

	sprite_cavalry = {
		0 = GDW_CAVALRY_1
		1 = GDW_CAVALRY_2
		2 = GDW_CAVALRY_3
		3 = GDW_CAVALRY_4
	}

	sprite_artillery = {
		0 = GDW_ARTILLERY_1
		1 = GDW_ARTILLERY_2
		2 = GDW_ARTILLERY_3
		3 = GDW_ARTILLERY_4
	}
}

pasindesh_sprite_pack = {
	# Tests against every tag in game
	country_trigger = {
		primary_culture = pasindesh
	}

	sprite_infantry = {
		0 = MYS_INFANTRY_1
		1 = MYS_INFANTRY_2
		2 = MYS_INFANTRY_3
		3 = MYS_INFANTRY_4
	}

	sprite_cavalry = {
		0 = MYS_CAVALRY_1
		1 = MYS_CAVALRY_2
		2 = MYS_CAVALRY_3
		3 = MYS_CAVALRY_4
	}

	sprite_artillery = {
		0 = MYS_ARTILLERY_1
		1 = MYS_ARTILLERY_2
		2 = MYS_ARTILLERY_3
		3 = MYS_ARTILLERY_4
	}
}

rabhidarubsad_sprite_pack = {
	# Tests against every tag in game
	country_trigger = {
		OR = {
			primary_culture = rabhidarubsad
			primary_culture = dhukharuved
		}
	}

	sprite_infantry = {
		0 = GUJ_INFANTRY_1
		1 = GUJ_INFANTRY_2
		2 = GUJ_INFANTRY_3
		3 = GUJ_INFANTRY_4
	}

	sprite_cavalry = {
		0 = GUJ_CAVALRY_1
		1 = GUJ_CAVALRY_2
		2 = GUJ_CAVALRY_3
		3 = GUJ_CAVALRY_4
	}

	sprite_artillery = {
		0 = GUJ_ARTILLERY_1
		1 = GUJ_ARTILLERY_2
		2 = GUJ_ARTILLERY_3
		3 = GUJ_ARTILLERY_4
	}
}

ghankedhen_sprite_pack = {
	# Tests against every tag in game
	country_trigger = {
		primary_culture = ghankedhen
	}

	sprite_infantry = {
		0 = MUL_INFANTRY_1
		1 = MUL_INFANTRY_2
		2 = MUL_INFANTRY_3
		3 = MUL_INFANTRY_4
	}

	sprite_cavalry = {
		0 = MUL_CAVALRY_1
		1 = MUL_CAVALRY_2
		2 = MUL_CAVALRY_3
		3 = MUL_CAVALRY_4
	}

	sprite_artillery = {
		0 = MUL_ARTILLERY_1
		1 = MUL_ARTILLERY_2
		2 = MUL_ARTILLERY_3
		3 = MUL_ARTILLERY_4
	}
}

rasarhid_sprite_pack = {
	# Tests against every tag in game
	country_trigger = {
		primary_culture = rasarhid
	}

	sprite_infantry = {
		0 = MUG_NEW2_INFANTRY_1
		1 = MUG_NEW2_INFANTRY_2
		2 = MUG_NEW2_INFANTRY_3
		3 = MUG_NEW2_INFANTRY_4
	}

	sprite_cavalry = {
		0 = MUG_NEW2_CAVALRY_1
		1 = MUG_NEW2_CAVALRY_2
		2 = MUG_NEW2_CAVALRY_3
		3 = MUG_NEW2_CAVALRY_4
	}

	sprite_artillery = {
		0 = MUG_NEW2_ARTILLERY_1
		1 = MUG_NEW2_ARTILLERY_2
		2 = MUG_NEW2_ARTILLERY_3
		3 = MUG_NEW2_ARTILLERY_4
	}
}

sarniryabsad_sprite_pack = {
	# Tests against every tag in game
	country_trigger = {
		primary_culture = sarniryabsad
	}

	sprite_infantry = {
		0 = BNG_INFANTRY_1
		1 = BNG_INFANTRY_2
		2 = BNG_INFANTRY_3
		3 = BNG_INFANTRY_4
	}

	sprite_cavalry = {
		0 = BNG_CAVALRY_1
		1 = BNG_CAVALRY_2
		2 = BNG_CAVALRY_3
		3 = BNG_CAVALRY_4
	}

	sprite_artillery = {
		0 = BNG_ARTILLERY_1
		1 = BNG_ARTILLERY_2
		2 = BNG_ARTILLERY_3
		3 = BNG_ARTILLERY_4
	}
}

ORI_sprite_pack = {
	# Tests against every tag in game
	country_trigger = {
		always = no
	}

	sprite_infantry = {
		0 = ORI_INFANTRY_1
		1 = ORI_INFANTRY_2
		2 = ORI_INFANTRY_3
		3 = ORI_INFANTRY_4
	}

	sprite_cavalry = {
		0 = ORI_CAVALRY_1
		1 = ORI_CAVALRY_2
		2 = ORI_CAVALRY_3
		3 = ORI_CAVALRY_4
	}

	sprite_artillery = {
		0 = ORI_ARTILLERY_1
		1 = ORI_ARTILLERY_2
		2 = ORI_ARTILLERY_3
		3 = ORI_ARTILLERY_4
	}
}

muthadhaya_sprite_pack = {
	# Tests against every tag in game
	country_trigger = {
		OR = {
			primary_culture = muthadhaya
			primary_culture = sarisungi
		}
	}

	sprite_infantry = {
		0 = JNP_INFANTRY_1
		1 = JNP_INFANTRY_2
		2 = JNP_INFANTRY_3
		3 = JNP_INFANTRY_4
	}

	sprite_cavalry = {
		0 = JNP_CAVALRY_1
		1 = JNP_CAVALRY_2
		2 = JNP_CAVALRY_3
		3 = JNP_CAVALRY_4
	}

	sprite_artillery = {
		0 = JNP_ARTILLERY_1
		1 = JNP_ARTILLERY_2
		2 = JNP_ARTILLERY_3
		3 = JNP_ARTILLERY_4
	}
}

ghavaanaj_sprite_pack = {
	# Tests against every tag in game
	country_trigger = {
		primary_culture = ghavaanaj
	}

	sprite_infantry = {
		0 = VIJ_NEW_INFANTRY_1
		1 = VIJ_NEW_INFANTRY_2
		2 = VIJ_NEW_INFANTRY_3
		3 = VIJ_NEW_INFANTRY_4
	}

	sprite_cavalry = {
		0 = VIJ_NEW_CAVALRY_1
		1 = VIJ_NEW_CAVALRY_2
		2 = VIJ_NEW_CAVALRY_3
		3 = VIJ_NEW_CAVALRY_4
	}

	sprite_artillery = {
		0 = VIJ_NEW_ARTILLERY_1
		1 = VIJ_NEW_ARTILLERY_2
		2 = VIJ_NEW_ARTILLERY_3
		3 = VIJ_NEW_ARTILLERY_4
	}
}

rajnadhid_sprite_pack = {
	# Tests against every tag in game
	country_trigger = {
		OR = {
			primary_culture = rajnadhid
			primary_culture = sobhagand
		}
	}

	sprite_infantry = {
		0 = MER_INFANTRY_1
		1 = MER_INFANTRY_2
		2 = MER_INFANTRY_3
		3 = MER_INFANTRY_4
	}

	sprite_cavalry = {
		0 = MER_CAVALRY_1
		1 = MER_CAVALRY_2
		2 = MER_CAVALRY_3
		3 = MER_CAVALRY_4
	}

	sprite_artillery = {
		0 = MER_ARTILLERY_1
		1 = MER_ARTILLERY_2
		2 = MER_ARTILLERY_3
		3 = MER_ARTILLERY_4
	}
}

shandibad_sprite_pack = {
	# Tests against every tag in game
	country_trigger = {
		primary_culture = shandibad
	}

	sprite_infantry = {
		0 = BAH_INFANTRY_1
		1 = BAH_INFANTRY_2
		2 = BAH_INFANTRY_3
		3 = BAH_INFANTRY_4
	}

	sprite_cavalry = {
		0 = BAH_CAVALRY_1
		1 = BAH_CAVALRY_2
		2 = BAH_CAVALRY_3
		3 = BAH_CAVALRY_4
	}

	sprite_artillery = {
		0 = BAH_ARTILLERY_1
		1 = BAH_ARTILLERY_2
		2 = BAH_ARTILLERY_3
		3 = BAH_ARTILLERY_4
	}
}

khedarid_sprite_pack = {
	# Tests against every tag in game
	country_trigger = {
		primary_culture = khedarid
	}

	sprite_infantry = {
		0 = MAR_INFANTRY_1
		1 = MAR_INFANTRY_2
		2 = MAR_INFANTRY_3
		3 = MAR_INFANTRY_4
	}

	sprite_cavalry = {
		0 = MAR_CAVALRY_1
		1 = MAR_CAVALRY_2
		2 = MAR_CAVALRY_3
		3 = MAR_CAVALRY_4
	}

	sprite_artillery = {
		0 = MAR_ARTILLERY_1
		1 = MAR_ARTILLERY_2
		2 = MAR_ARTILLERY_3
		3 = MAR_ARTILLERY_4
	}
}

shamadhan_sprite_pack = {
	# Tests against every tag in game
	country_trigger = {
		primary_culture = shamadhan
	}

	sprite_infantry = {
		0 = NPL_INFANTRY_1
		1 = NPL_INFANTRY_2
		2 = NPL_INFANTRY_3
		3 = NPL_INFANTRY_4
	}

	sprite_cavalry = {
		0 = NPL_CAVALRY_1
		1 = NPL_CAVALRY_2
		2 = NPL_CAVALRY_3
		3 = NPL_CAVALRY_4
	}

	sprite_artillery = {
		0 = NPL_ARTILLERY_1
		1 = NPL_ARTILLERY_2
		2 = NPL_ARTILLERY_3
		3 = NPL_ARTILLERY_4
	}
}

khamgunai_sprite_pack = {
	# Tests against every tag in game
	country_trigger = {
		primary_culture = khamgunai
	}

	sprite_infantry = {
		0 = TIM_INFANTRY_1
		1 = TIM_INFANTRY_2
		2 = TIM_INFANTRY_3
		3 = TIM_INFANTRY_4
	}

	sprite_cavalry = {
		0 = TIM_CAVALRY_1
		1 = TIM_CAVALRY_2
		2 = TIM_CAVALRY_3
		3 = TIM_CAVALRY_4
	}

	sprite_artillery = {
		0 = TIM_ARTILLERY_1
		1 = TIM_ARTILLERY_2
		2 = TIM_ARTILLERY_3
		3 = TIM_ARTILLERY_4
	}
}

zabatlari_sprite_pack = {
	# Tests against every tag in game
	country_trigger = {
		primary_culture = zabatlari
	}

	sprite_infantry = {
		0 = GOL_INFANTRY_1
		1 = GOL_INFANTRY_2
		2 = GOL_INFANTRY_3
		3 = GOL_INFANTRY_4
	}

	sprite_cavalry = {
		0 = GOL_CAVALRY_1
		1 = GOL_CAVALRY_2
		2 = GOL_CAVALRY_3
		3 = GOL_CAVALRY_4
	}

	sprite_artillery = {
		0 = GOL_ARTILLERY_1
		1 = GOL_ARTILLERY_2
		2 = GOL_ARTILLERY_3
		3 = GOL_ARTILLERY_4
	}
}

metsamic_sprite_pack = {
	# Tests against every tag in game
	country_trigger = {
		primary_culture = metsamic
	}

	sprite_infantry = {
		0 = NOV_INFANTRY_1
		1 = NOV_INFANTRY_2
		2 = FEO_INFANTRY_3
		3 = FEO_INFANTRY_4
	}

	sprite_cavalry = {
		0 = NOV_CAVALRY_1
		1 = NOV_CAVALRY_2
		2 = FEO_CAVALRY_3
		3 = FEO_CAVALRY_4
	}

	sprite_artillery = {
		0 = NOV_ARTILLERY_1
		1 = NOV_ARTILLERY_2
		2 = FEO_ARTILLERY_3
		3 = FEO_ARTILLERY_4
	}
}

Wood_elf_sprite_pack = {
	# Tests against every tag in game
	country_trigger = {
		primary_culture = wood_elf
	}

	sprite_infantry = {
		0 = ASI_INFANTRY_1
		1 = MPC_INFANTRY_2
		2 = MPC_INFANTRY_3
		3 = MPC_INFANTRY_4
	}

	sprite_cavalry = {
		0 = ASI_CAVALRY_1
		1 = MPC_CAVALRY_2
		2 = MPC_CAVALRY_3
		3 = MPC_CAVALRY_4
	}

	sprite_artillery = {
		0 = ASI_ARTILLERY_1
		1 = MPC_ARTILLERY_2
		2 = MPC_ARTILLERY_3
		3 = MPC_ARTILLERY_4
	}
}

group_moon_elf_sprite_pack = {
	# Tests against every tag in game
	country_trigger = {
		primary_culture = moon_elf
	}

	sprite_infantry = {
		0 = SBA_INFANTRY_1
	}

	sprite_cavalry = {
		0 = SBA_CAVALRY_1
	}

	sprite_artillery = {
		0 = SBA_ARTILLERY_1
	}
}

Sun_elf_sprite_pack = {
	# Tests against every tag in game
	country_trigger = {
		primary_culture = sun_elf
	}

	sprite_infantry = {
		0 = OUC_INFANTRY_1
	}

	sprite_cavalry = {
		0 = OUC_CAVALRY_1
	}

	sprite_artillery = {
		0 = OUC_ARTILLERY_1
	}
}

Jaddari_sprite_pack = {
	# Tests against every tag in game
	country_trigger = {
		primary_culture = desert_elf
	}

	sprite_infantry = {
		0 = MOR_INFANTRY_1
		1 = MOR_INFANTRY_2
		2 = MOR_INFANTRY_3
		3 = MOR_INFANTRY_4
	}

	sprite_cavalry = {
		0 = MOR_CAVALRY_1
		1 = MOR_CAVALRY_2
		2 = MOR_CAVALRY_3
		3 = MOR_CAVALRY_4
	}

	sprite_artillery = {
		0 = MOR_ARTILLERY_1
		1 = MOR_ARTILLERY_2
		2 = MOR_ARTILLERY_3
		3 = MOR_ARTILLERY_4
	}
}

Redfoot_sprite_pack = {
	# Tests against every tag in game
	country_trigger = {
		culture_group = halfling
	}

	sprite_infantry = {
		0 = KID_INFANTRY_1
		1 = ULS_INFANTRY_2
		2 = ULS_INFANTRY_3
		3 = ULS_INFANTRY_4
	}

	sprite_cavalry = {
		0 = KID_CAVALRY_1
		1 = ULS_CAVALRY_2
		2 = ULS_CAVALRY_3
		3 = ULS_CAVALRY_4
	}

	sprite_artillery = {
		0 = KID_ARTILLERY_1
		1 = ULS_ARTILLERY_2
		2 = ULS_ARTILLERY_3
		3 = ULS_ARTILLERY_4
	}
}

Bluefoot_sprite_pack = {
	# Tests against every tag in game
	country_trigger = {
		OR = {
			tag = A07
			primary_culture = bluefoot_halfling
		}
	}

	sprite_infantry = {
		0 = MNS_INFANTRY_1
		1 = CNN_INFANTRY_2
		2 = CNN_INFANTRY_3
		3 = CNN_INFANTRY_4
	}

	sprite_cavalry = {
		0 = MNS_CAVALRY_1
		1 = CNN_CAVALRY_2
		2 = CNN_CAVALRY_3
		3 = CNN_CAVALRY_4
	}

	sprite_artillery = {
		0 = MNS_ARTILLERY_1
		1 = CNN_ARTILLERY_2
		2 = CNN_ARTILLERY_3
		3 = CNN_ARTILLERY_4
	}
}

group_dwarves_sprite_pack = {
	# Tests against every tag in game
	country_trigger = {
		culture_group = dwarven
	}

	sprite_infantry = {
		0 = CIR_INFANTRY_1
		1 = CIR_INFANTRY_2
		2 = CIR_INFANTRY_3
		3 = CIR_INFANTRY_4
	}

	sprite_cavalry = {
		0 = CIR_CAVALRY_1
		1 = CIR_CAVALRY_2
		2 = CIR_CAVALRY_3
		3 = CIR_CAVALRY_4
	}

	sprite_artillery = {
		0 = CIR_ARTILLERY_1
		1 = CIR_ARTILLERY_2
		2 = CIR_ARTILLERY_3
		3 = CIR_ARTILLERY_4
	}
}

Harimari_sprite_pack = {
	# Tests against every tag in game
	country_trigger = {
		culture_group = harimari
	}

	sprite_infantry = {
		0 = ZAP_INFANTRY_1
		1 = ZAP_INFANTRY_2
		2 = ZAP_INFANTRY_3
		3 = ZAP_INFANTRY_4
	}

	sprite_cavalry = {
		0 = ZAP_CAVALRY_1
		1 = ZAP_CAVALRY_2
		2 = ZAP_CAVALRY_3
		3 = ZAP_CAVALRY_4
	}

	sprite_artillery = {
		0 = ZAP_ARTILLERY_1
		1 = ZAP_ARTILLERY_2
		2 = ZAP_ARTILLERY_3
		3 = ZAP_ARTILLERY_4
	}
}

Goblin_sprite_pack = {
	# Tests against every tag in game
	country_trigger = {
		culture_group = goblin
		NOT = { primary_culture = cave_goblin }
	}

	sprite_infantry = {
		0 = MAY_INFANTRY_1
		1 = KBO_INFANTRY_2
		2 = KBO_INFANTRY_3
		3 = KBO_INFANTRY_4
	}

	sprite_cavalry = {
		0 = MAY_CAVALRY_1
		1 = KBO_CAVALRY_2
		2 = KBO_CAVALRY_3
		3 = KBO_CAVALRY_4
	}

	sprite_artillery = {
		0 = MAY_ARTILLERY_1
		1 = KBO_ARTILLERY_2
		2 = KBO_ARTILLERY_3
		3 = KBO_ARTILLERY_4
	}
}

Cave_Goblin_sprite_pack = {
	# Tests against every tag in game
	country_trigger = {
		primary_culture = cave_goblin
	}

	sprite_infantry = {
		0 = MAY_INFANTRY_1
		1 = MAY_INFANTRY_2
		2 = MAY_INFANTRY_3
		3 = MAY_INFANTRY_4
	}

	sprite_cavalry = {
		0 = MAY_CAVALRY_1
		1 = MAY_CAVALRY_2
		2 = MAY_CAVALRY_3
		3 = MAY_CAVALRY_4
	}

	sprite_artillery = {
		0 = MAY_ARTILLERY_1
		1 = MAY_ARTILLERY_2
		2 = MAY_ARTILLERY_3
		3 = MAY_ARTILLERY_4
	}
}

hobgoblin_sprite_pack = {
	# Tests against every tag in game
	country_trigger = {
		culture_group = hobgoblin
	}

	sprite_infantry = {
		0 = RFR_INFANTRY_1
		1 = RFR_INFANTRY_1
		2 = RFR_INFANTRY_1
		3 = RFR_INFANTRY_1
	}

	sprite_cavalry = {
		0 = RFR_CAVALRY_1
		1 = RFR_CAVALRY_1
		2 = RFR_CAVALRY_1
		3 = RFR_CAVALRY_1
	}

	sprite_artillery = {
		0 = RFR_ARTILLERY_1
		1 = RFR_ARTILLERY_1
		2 = RFR_ARTILLERY_1
		3 = RFR_ARTILLERY_1
	}
}

Harpy_sprite_pack = {
	# Tests against every tag in game
	country_trigger = {
		culture_group = harpy
	}

	sprite_infantry = {
		0 = INC_INFANTRY_1
		1 = INC_INFANTRY_2
		2 = INC_INFANTRY_3
		3 = INC_INFANTRY_4
	}

	sprite_cavalry = {
		0 = INC_CAVALRY_1
		1 = INC_CAVALRY_2
		2 = INC_CAVALRY_3
		3 = INC_CAVALRY_4
	}

	sprite_artillery = {
		0 = INC_ARTILLERY_1
		1 = INC_ARTILLERY_2
		2 = INC_ARTILLERY_3
		3 = INC_ARTILLERY_4
	}
}

Gnoll_sprite_pack = {
	# Tests against every tag in game
	country_trigger = {
		culture_group = gnollish
	}

	sprite_infantry = {
		0 = AZT_INFANTRY_1
		1 = AZT_INFANTRY_1
		2 = AZT_INFANTRY_1
		3 = AZT_INFANTRY_1
	}

	sprite_cavalry = {
		0 = AZT_CAVALRY_1
		1 = AZT_CAVALRY_1
		2 = AZT_CAVALRY_1
		3 = AZT_CAVALRY_1
	}

	sprite_artillery = {
		0 = AZT_ARTILLERY_1
		1 = AZT_ARTILLERY_1
		2 = AZT_ARTILLERY_1
		3 = AZT_ARTILLERY_1
	}
}

Centaur_sprite_pack = {
	# Tests against every tag in game
	country_trigger = {
		culture_group = centaur
	}

	sprite_infantry = {
		0 = OIR_INFANTRY_1
		1 = OIR_INFANTRY_2
		2 = OIR_INFANTRY_3
		3 = OIR_INFANTRY_4
	}

	sprite_cavalry = {
		0 = OIR_CAVALRY_1
		1 = OIR_CAVALRY_2
		2 = OIR_CAVALRY_3
		3 = OIR_CAVALRY_4
	}

	sprite_artillery = {
		0 = OIR_ARTILLERY_1
		1 = OIR_ARTILLERY_2
		2 = OIR_ARTILLERY_3
		3 = OIR_ARTILLERY_4
	}
}

Dameria_sprite_pack = {
	# Tests against every tag in game
	country_trigger = {
		tag = A58
	}

	sprite_infantry = {
		0 = BOH_INFANTRY_1
		1 = SWI_INFANTRY_2
		2 = SWI_INFANTRY_3
		3 = SWI_INFANTRY_4
	}

	sprite_cavalry = {
		0 = BOH_CAVALRY_1
		1 = SWI_CAVALRY_2
		2 = SWI_CAVALRY_3
		3 = SWI_CAVALRY_4
	}

	sprite_artillery = {
		0 = BOH_ARTILLERY_1
		1 = SWI_ARTILLERY_2
		2 = SWI_ARTILLERY_3
		3 = SWI_ARTILLERY_4
	}
}

Anbennar_sprite_pack = {
	# Tests against every tag in game
	country_trigger = {
		tag = Z01
	}

	sprite_infantry = {
		0 = BOH_INFANTRY_1
		1 = SWI_INFANTRY_2
		2 = SWI_INFANTRY_3
		3 = SIE_INFANTRY_4
	}

	sprite_cavalry = {
		0 = BOH_CAVALRY_1
		1 = SWI_CAVALRY_2
		2 = SWI_CAVALRY_3
		3 = SIE_CAVALRY_4
	}

	sprite_artillery = {
		0 = BOH_ARTILLERY_1
		1 = SWI_ARTILLERY_2
		2 = SWI_ARTILLERY_3
		3 = SIE_ARTILLERY_4
	}
}
Lorent_sprite_pack = {
	# Tests against every tag in game
	country_trigger = {
		tag = A01
	}

	sprite_infantry = {
		0 = PAP_INFANTRY_1
		1 = BRI_INFANTRY_2
		2 = BRI_INFANTRY_3
		3 = BRI_INFANTRY_4
	}

	sprite_cavalry = {
		0 = PAP_CAVALRY_1
		1 = BRI_CAVALRY_2
		2 = BRI_CAVALRY_3
		3 = BRI_CAVALRY_4
	}

	sprite_artillery = {
		0 = PAP_ARTILLERY_1
		1 = BRI_ARTILLERY_2
		2 = BRI_ARTILLERY_3
		3 = BRI_ARTILLERY_4
	}
}

Rubenaire_sprite_pack = {
	# Tests against every tag in game
	country_trigger = {
		tag = A18
	}
	sprite_infantry = {
		0 = ARA_INFANTRY_1
		1 = BRI_INFANTRY_2
		2 = BRI_INFANTRY_3
		3 = BRI_INFANTRY_4
	}

	sprite_cavalry = {
		0 = ARA_CAVALRY_1
		1 = BRI_CAVALRY_2
		2 = BRI_CAVALRY_3
		3 = BRI_CAVALRY_4
	}

	sprite_artillery = {
		0 = ARA_ARTILLERY_1
		1 = BRI_ARTILLERY_2
		2 = BRI_ARTILLERY_3
		3 = BRI_ARTILLERY_4
	}
}

Eilisin_sprite_pack = {
	# Tests against every tag in game
	country_trigger = {
		tag = A15
	}

	sprite_infantry = {
		0 = GEN_INFANTRY_1
		1 = BRI_INFANTRY_2
		2 = BRI_INFANTRY_3
		3 = BRI_INFANTRY_4
	}

	sprite_cavalry = {
		0 = GEN_CAVALRY_1
		1 = BRI_CAVALRY_2
		2 = BRI_CAVALRY_3
		3 = BRI_CAVALRY_4
	}

	sprite_artillery = {
		0 = GEN_ARTILLERY_1
		1 = BRI_ARTILLERY_2
		2 = BRI_ARTILLERY_3
		3 = BRI_ARTILLERY_4
	}
}

Madelaire_sprite_pack = {
	# Tests against every tag in game
	country_trigger = {
		tag = A14
	}

	sprite_infantry = {
		0 = MTH_INFANTRY_1
		1 = BRI_INFANTRY_2
		2 = BRI_INFANTRY_3
		3 = BRI_INFANTRY_4
	}

	sprite_cavalry = {
		0 = MTH_CAVALRY_1
		1 = BRI_CAVALRY_2
		2 = BRI_CAVALRY_3
		3 = BRI_CAVALRY_4
	}

	sprite_artillery = {
		0 = MTH_ARTILLERY_1
		1 = BRI_ARTILLERY_2
		2 = BRI_ARTILLERY_3
		3 = BRI_ARTILLERY_4
	}
}

Lasean_sprite_pack = {
	# Tests against every tag in game
	country_trigger = {
		tag = A96
	}

	sprite_infantry = {
		0 = POR_NEW_INFANTRY_1
		1 = BRI_INFANTRY_2
		2 = BRI_INFANTRY_3
		3 = NAP_INFANTRY_4
	}

	sprite_cavalry = {
		0 = POR_NEW_CAVALRY_1
		1 = BRI_CAVALRY_2
		2 = BRI_CAVALRY_3
		3 = NAP_CAVALRY_4
	}

	sprite_artillery = {
		0 = POR_NEW_ARTILLERY_1
		1 = BRI_ARTILLERY_2
		2 = BRI_ARTILLERY_3
		3 = NAP_ARTILLERY_4
	}
}

Westmoor_sprite_pack = {
	# Tests against every tag in game
	country_trigger = {
		tag = Z26
	}

	sprite_infantry = {
		0 = WLS_INFANTRY_1
		1 = WLS_INFANTRY_2
		2 = WLS_INFANTRY_3
		3 = WLS_INFANTRY_4
	}

	sprite_cavalry = {
		0 = WLS_CAVALRY_1
		1 = WLS_CAVALRY_2
		2 = WLS_CAVALRY_3
		3 = WLS_CAVALRY_4
	}

	sprite_artillery = {
		0 = WLS_ARTILLERY_1
		1 = WLS_ARTILLERY_2
		2 = WLS_ARTILLERY_3
		3 = WLS_ARTILLERY_4
	}
}

Adshaw_sprite_pack = {
	# Tests against every tag in game
	country_trigger = {
		tag = A24
	}

	sprite_infantry = {
		0 = WLS_INFANTRY_1
		1 = WLS_INFANTRY_2
		2 = WLS_INFANTRY_3
		3 = WLS_INFANTRY_4
	}

	sprite_cavalry = {
		0 = WLS_CAVALRY_1
		1 = WLS_CAVALRY_2
		2 = WLS_CAVALRY_3
		3 = WLS_CAVALRY_4
	}

	sprite_artillery = {
		0 = WLS_ARTILLERY_1
		1 = WLS_ARTILLERY_2
		2 = WLS_ARTILLERY_3
		3 = WLS_ARTILLERY_4
	}
}


Wineport_sprite_pack = {
	# Tests against every tag in game
	country_trigger = {
		tag = A16
	}

	sprite_infantry = {
		0 = HAM_INFANTRY_1
		1 = HAM_INFANTRY_2
		2 = HAM_INFANTRY_3
		3 = HAM_INFANTRY_4
	}

	sprite_cavalry = {
		0 = HAM_CAVALRY_1
		1 = HAM_CAVALRY_2
		2 = HAM_CAVALRY_3
		3 = HAM_CAVALRY_4
	}

	sprite_artillery = {
		0 = HAM_ARTILLERY_1
		1 = HAM_ARTILLERY_2
		2 = HAM_ARTILLERY_3
		3 = HAM_ARTILLERY_4
	}
}


Saloren_sprite_pack = {
	# Tests against every tag in game
	country_trigger = {
		OR = {
			tag = A87
			tag = A78
		}
	}

	sprite_infantry = {
		0 = ARA_INFANTRY_1
		1 = POR_NEW_INFANTRY_2
		2 = POR_NEW_INFANTRY_3
		3 = POR_NEW_INFANTRY_4
	}

	sprite_cavalry = {
		0 = ARA_CAVALRY_1
		1 = POR_NEW_CAVALRY_2
		2 = POR_NEW_CAVALRY_3
		3 = POR_NEW_CAVALRY_4
	}

	sprite_artillery = {
		0 = ARA_ARTILLERY_1
		1 = POR_NEW_ARTILLERY_2
		2 = POR_NEW_ARTILLERY_3
		3 = POR_NEW_ARTILLERY_4
	}
}

Sorncost_sprite_pack = {
	# Tests against every tag in game
	country_trigger = {
		OR = {
			tag = A09
			tag = H41
			tag = H40
		}
	}

	sprite_infantry = {
		0 = FRN_INFANTRY_1
		1 = FRN_INFANTRY_2
		2 = FRN_INFANTRY_3
		3 = FRN_INFANTRY_4
	}

	sprite_cavalry = {
		0 = FRN_CAVALRY_1
		1 = FRN_CAVALRY_2
		2 = FRN_CAVALRY_3
		3 = FRN_CAVALRY_4
	}

	sprite_artillery = {
		0 = FRN_ARTILLERY_1
		1 = FRN_ARTILLERY_2
		2 = FRN_ARTILLERY_3
		3 = FRN_ARTILLERY_4
	}
}

Deranne_sprite_pack = {
	# Tests against every tag in game
	country_trigger = {
		OR = {
			tag = A02
			tag = G99
		}
	}

	sprite_infantry = {
		0 = NUM_INFANTRY_1
		1 = NUM_INFANTRY_2
		2 = NUM_INFANTRY_3
		3 = NUM_INFANTRY_4
	}

	sprite_cavalry = {
		0 = NUM_CAVALRY_1
		1 = NUM_CAVALRY_2
		2 = NUM_CAVALRY_3
		3 = NUM_CAVALRY_4
	}

	sprite_artillery = {
		0 = NUM_ARTILLERY_1
		1 = NUM_ARTILLERY_2
		2 = NUM_ARTILLERY_3
		3 = NUM_ARTILLERY_4
	}
}

Ordaaldresia_sprite_pack = {
	# Tests against every tag in game
	country_trigger = {
		OR =  {
			tag = A77
			tag = B19
			tag = Z37
		}
	}

	sprite_infantry = {
		0 = LIV_INFANTRY_1
		1 = LIV_INFANTRY_2
		2 = LIV_INFANTRY_3
		3 = LIV_INFANTRY_4
	}

	sprite_cavalry = {
		0 = LIV_CAVALRY_1
		1 = LIV_CAVALRY_2
		2 = LIV_CAVALRY_3
		3 = LIV_CAVALRY_4
	}

	sprite_artillery = {
		0 = LIV_ARTILLERY_1
		1 = LIV_ARTILLERY_2
		2 = LIV_ARTILLERY_3
		3 = LIV_ARTILLERY_4
	}
}

Telgeir_sprite_pack = {
	# Tests against every tag in game
	country_trigger = {
		OR =  {
			tag = A62
			tag = G97
		}
	}

	sprite_infantry = {
		0 = TEU_INFANTRY_1
		1 = TEU_INFANTRY_2
		2 = TEU_INFANTRY_3
		3 = TEU_INFANTRY_4
	}

	sprite_cavalry = {
		0 = TEU_CAVALRY_1
		1 = TEU_CAVALRY_2
		2 = TEU_CAVALRY_3
		3 = TEU_CAVALRY_4
	}

	sprite_artillery = {
		0 = TEU_ARTILLERY_1
		1 = TEU_ARTILLERY_2
		2 = TEU_ARTILLERY_3
		3 = TEU_ARTILLERY_4
	}
}

Corintar_sprite_pack = {
	# Tests against every tag in game
	country_trigger = {
		tag = B02
	}

	sprite_infantry = {
		0 = KNI_INFANTRY_1
		1 = KNI_INFANTRY_2
		2 = KNI_INFANTRY_3
		3 = KNI_INFANTRY_4
	}

	sprite_cavalry = {
		0 = KNI_CAVALRY_1
		1 = KNI_CAVALRY_2
		2 = KNI_CAVALRY_3
		3 = KNI_CAVALRY_4
	}

	sprite_artillery = {
		0 = KNI_ARTILLERY_1
		1 = KNI_ARTILLERY_2
		2 = KNI_ARTILLERY_3
		3 = KNI_ARTILLERY_4
	}
}

Greatmarch_sprite_pack = {
	# Tests against every tag in game
	country_trigger = {
		OR = {
			tag = A50
			tag = B03
			tag = B40
		}
	}

	sprite_infantry = {
		0 = RUS_NEW_INFANTRY_1
		1 = RUS_NEW_INFANTRY_2
		2 = RUS_NEW_INFANTRY_3
		3 = RUS_NEW_INFANTRY_4
	}

	sprite_cavalry = {
		0 = RUS_NEW_CAVALRY_1
		1 = RUS_NEW_CAVALRY_2
		2 = RUS_NEW_CAVALRY_3
		3 = RUS_NEW_CAVALRY_4
	}

	sprite_artillery = {
		0 = RUS_NEW_ARTILLERY_1
		1 = RUS_NEW_ARTILLERY_2
		2 = RUS_NEW_ARTILLERY_3
		3 = RUS_NEW_ARTILLERY_4
	}
}

Ording_sprite_pack = {
	# Tests against every tag in game
	country_trigger = {
		tag = A17
	}

	sprite_infantry = {
		0 = FEO_INFANTRY_1
		1 = FEO_INFANTRY_2
		2 = FEO_INFANTRY_3
		3 = FEO_INFANTRY_4
	}

	sprite_cavalry = {
		0 = FEO_CAVALRY_1
		1 = FEO_CAVALRY_2
		2 = FEO_CAVALRY_3
		3 = FEO_CAVALRY_4
	}

	sprite_artillery = {
		0 = FEO_ARTILLERY_1
		1 = FEO_ARTILLERY_2
		2 = FEO_ARTILLERY_3
		3 = FEO_ARTILLERY_4
	}
}

Sugamber_sprite_pack = {
	# Tests against every tag in game
	country_trigger = {
		tag = A48
	}

	sprite_infantry = {
		0 = TYR_INFANTRY_1
		1 = TYR_INFANTRY_2
		2 = TYR_INFANTRY_3
		3 = TYR_INFANTRY_4
	}

	sprite_cavalry = {
		0 = TYR_CAVALRY_1
		1 = TYR_CAVALRY_2
		2 = TYR_CAVALRY_3
		3 = TYR_CAVALRY_4
	}

	sprite_artillery = {
		0 = TYR_ARTILLERY_1
		1 = TYR_ARTILLERY_2
		2 = TYR_ARTILLERY_3
		3 = TYR_ARTILLERY_4
	}
}

TELLUM_sprite_pack = {
	# Tests against every tag in game
	country_trigger = {
		OR = {
			tag = A86
			tag = H64
			tag = H65
		}
	}

	sprite_infantry = {
		0 = SLN_INFANTRY_1
		1 = SCO_INFANTRY_2
		2 = SCO_INFANTRY_3
		3 = SCO_INFANTRY_4
	}

	sprite_cavalry = {
		0 = SLN_CAVALRY_1
		1 = SCO_CAVALRY_2
		2 = SCO_CAVALRY_3
		3 = SCO_CAVALRY_4
	}

	sprite_artillery = {
		0 = SLN_ARTILLERY_1
		1 = SCO_ARTILLERY_2
		2 = SCO_ARTILLERY_3
		3 = SCO_ARTILLERY_4
	}
}

Arannen_sprite_pack = {
	# Tests against every tag in game
	country_trigger = {
		tag = A72
	}

	sprite_infantry = {
		0 = CRN_INFANTRY_1
		1 = BAV_INFANTRY_2_catup
		2 = CRN_INFANTRY_3
		3 = CRN_INFANTRY_4
	}

	sprite_cavalry = {
		0 = CRN_CAVALRY_1
		1 = BAV_CAVALRY_2_catup
		2 = CRN_CAVALRY_3
		3 = CRN_CAVALRY_4
	}

	sprite_artillery = {
		0 = CRN_ARTILLERY_1
		1 = BAV_ARTILLERY_2_catup
		2 = CRN_ARTILLERY_3
		3 = CRN_ARTILLERY_4
	}
}

Beepeck_sprite_pack = {
	# Tests against every tag in game
	country_trigger = {
		tag = A12
	}

	sprite_infantry = {
		0 = NOL_INFANTRY_1
		1 = NOL_INFANTRY_2
		2 = NOL_INFANTRY_3
		3 = NOL_INFANTRY_4
	}

	sprite_cavalry = {
		0 = NOL_CAVALRY_1
		1 = NOL_CAVALRY_2
		2 = NOL_CAVALRY_3
		3 = NOL_CAVALRY_4
	}

	sprite_artillery = {
		0 = NOL_ARTILLERY_1
		1 = NOL_ARTILLERY_2
		2 = NOL_ARTILLERY_3
		3 = NOL_ARTILLERY_4
	}
}

Bisan_sprite_pack = {
	# Tests against every tag in game
	country_trigger = {
		tag = A34
	}

	sprite_infantry = {
		0 = NRM_INFANTRY_1
		1 = NRM_INFANTRY_2
		2 = NRM_INFANTRY_3
		3 = NRM_INFANTRY_4
	}

	sprite_cavalry = {
		0 = NRM_CAVALRY_1
		1 = NRM_CAVALRY_2
		2 = NRM_CAVALRY_3
		3 = NRM_CAVALRY_4
	}

	sprite_artillery = {
		0 = NRM_ARTILLERY_1
		1 = NRM_ARTILLERY_2
		2 = NRM_ARTILLERY_3
		3 = NRM_ARTILLERY_4
	}
}

Olavish_sprite_pack = {
	# Tests against every tag in game
	country_trigger = {
		OR = {
			tag = Z09
			tag = Z13
			tag = Z14
			tag = Z12
			tag = Z16
		}
	}

	sprite_infantry = {
		0 = PRM_INFANTRY_1
		1 = PRM_INFANTRY_2
		2 = PRM_INFANTRY_3
		3 = PRM_INFANTRY_4
	}

	sprite_cavalry = {
		0 = PRM_CAVALRY_1
		1 = PRM_CAVALRY_2
		2 = PRM_CAVALRY_3
		3 = PRM_CAVALRY_4
	}

	sprite_artillery = {
		0 = PRM_ARTILLERY_1
		1 = PRM_ARTILLERY_2
		2 = PRM_ARTILLERY_3
		3 = PRM_ARTILLERY_4
	}
}

Urviksten_sprite_pack = {
	# Tests against every tag in game
	country_trigger = {
		tag = Z15
	}

	sprite_infantry = {
		0 = RYA_INFANTRY_1
		1 = RYA_INFANTRY_2
		2 = RYA_INFANTRY_3
		3 = RYA_INFANTRY_4
	}

	sprite_cavalry = {
		0 = RYA_CAVALRY_1
		1 = RYA_CAVALRY_2
		2 = RYA_CAVALRY_3
		3 = RYA_CAVALRY_4
	}

	sprite_artillery = {
		0 = RYA_ARTILLERY_1
		1 = RYA_ARTILLERY_2
		2 = RYA_ARTILLERY_3
		3 = RYA_ARTILLERY_4
	}
}

Marrhold_sprite_pack = {
	# Tests against every tag in game
	country_trigger = {
		tag = B36
	}

	sprite_infantry = {
		0 = OKA_INFANTRY_1
		1 = OKA_INFANTRY_2
		2 = OKA_INFANTRY_3
		3 = OKA_INFANTRY_4
	}

	sprite_cavalry = {
		0 = OKA_CAVALRY_1
		1 = OKA_CAVALRY_2
		2 = OKA_CAVALRY_3
		3 = OKA_CAVALRY_4
	}

	sprite_artillery = {
		0 = OKA_ARTILLERY_1
		1 = OKA_ARTILLERY_2
		2 = OKA_ARTILLERY_3
		3 = OKA_ARTILLERY_4
	}
}


Revrhaven_sprite_pack = {
	# Tests against every tag in game
	country_trigger = {
		tag = Z10
	}

	sprite_infantry = {
		0 = TVE_INFANTRY_1
		1 = TVE_INFANTRY_2
		2 = TVE_INFANTRY_3
		3 = TVE_INFANTRY_4
	}

	sprite_cavalry = {
		0 = TVE_CAVALRY_1
		1 = TVE_CAVALRY_2
		2 = TVE_CAVALRY_3
		3 = TVE_CAVALRY_4
	}

	sprite_artillery = {
		0 = TVE_ARTILLERY_1
		1 = TVE_ARTILLERY_2
		2 = TVE_ARTILLERY_3
		3 = TVE_ARTILLERY_4
	}
}

Vertesk_sprite_pack = {
	# Tests against every tag in game
	country_trigger = {
		tag = A23
	}

	sprite_infantry = {
		0 = PLT_INFANTRY_1
		1 = PLT_INFANTRY_2
		2 = PLT_INFANTRY_3
		3 = PLT_INFANTRY_4
	}

	sprite_cavalry = {
		0 = PLT_CAVALRY_1
		1 = PLT_CAVALRY_2
		2 = PLT_CAVALRY_3
		3 = PLT_CAVALRY_4
	}

	sprite_artillery = {
		0 = PLT_ARTILLERY_1
		1 = PLT_ARTILLERY_2
		2 = PLT_ARTILLERY_3
		3 = PLT_ARTILLERY_4
	}
}

Bjarnrik_sprite_pack = {
	# Tests against every tag in game
	country_trigger = {
		OR = {
			tag = Z08 
			tag = Z11
		}
	}

	sprite_infantry = {
		0 = NZH_INFANTRY_1
		1 = NZH_INFANTRY_2
		2 = NZH_INFANTRY_3
		3 = NZH_INFANTRY_4
	}

	sprite_cavalry = {
		0 = NZH_CAVALRY_1
		1 = NZH_CAVALRY_2
		2 = NZH_CAVALRY_3
		3 = NZH_CAVALRY_4
	}

	sprite_artillery = {
		0 = NZH_ARTILLERY_1
		1 = NZH_ARTILLERY_2
		2 = NZH_ARTILLERY_3
		3 = NZH_ARTILLERY_4
	}
}

Gawed_sprite_pack = {
	# Tests against every tag in game
	country_trigger = {
		tag = A13
	}

	sprite_infantry = {
		0 = UKR_INFANTRY_1
		1 = HUN_INFANTRY_2
		2 = UKR_INFANTRY_3
		3 = GER_INFANTRY_4
	}

	sprite_cavalry = {
		0 = UKR_CAVALRY_1
		1 = HUN_CAVALRY_2
		2 = UKR_CAVALRY_3
		3 = GER_CAVALRY_4
	}

	sprite_artillery = {
		0 = UKR_ARTILLERY_1
		1 = HUN_ARTILLERY_2
		2 = UKR_ARTILLERY_3
		3 = GER_ARTILLERY_4
	}
}


Verne_sprite_pack = {
	# Tests against every tag in game
	country_trigger = {
		tag = A33
	}

	sprite_infantry = {
		0 = GAL_INFANTRY_1
		1 = GAL_INFANTRY_2
		2 = GAL_INFANTRY_3
		3 = GAL_INFANTRY_4
	}

	sprite_cavalry = {
		0 = GAL_CAVALRY_1
		1 = GAL_CAVALRY_2
		2 = GAL_CAVALRY_3
		3 = GAL_CAVALRY_4
	}

	sprite_artillery = {
		0 = GAL_ARTILLERY_1
		1 = GAL_ARTILLERY_2
		2 = GAL_ARTILLERY_3
		3 = GAL_ARTILLERY_4
	}
}

Nathalaire_sprite_pack = {
	# Tests against every tag in game
	country_trigger = {
		tag = A74
	}

	sprite_infantry = {
		0 = NSS_INFANTRY_1
		1 = NSS_INFANTRY_2
		2 = NSS_INFANTRY_3
		3 = NSS_INFANTRY_4
	}

	sprite_cavalry = {
		0 = NSS_CAVALRY_1
		1 = NSS_CAVALRY_2
		2 = NSS_CAVALRY_3
		3 = NSS_CAVALRY_4
	}

	sprite_artillery = {
		0 = NSS_ARTILLERY_1
		1 = NSS_ARTILLERY_2
		2 = NSS_ARTILLERY_3
		3 = NSS_ARTILLERY_4
	}
}

Crathanor_sprite_pack = {
	# Tests against every tag in game
	country_trigger = {
		tag = U17
	}

	sprite_infantry = {
		0 = TAB_INFANTRY_1
		1 = TAB_INFANTRY_2
		2 = TAB_INFANTRY_3
		3 = TAB_INFANTRY_4
	}

	sprite_cavalry = {
		0 = TAB_CAVALRY_1
		1 = TAB_CAVALRY_2
		2 = TAB_CAVALRY_3
		3 = TAB_CAVALRY_4
	}

	sprite_artillery = {
		0 = TAB_ARTILLERY_1
		1 = TAB_ARTILLERY_2
		2 = TAB_ARTILLERY_3
		3 = TAB_ARTILLERY_4
	}
}

New_world_bulwari_sprite_pack = {
	# Tests against every tag in game
	country_trigger = {
		OR = {
			tag = G92
			tag = H38
		}
	}

	sprite_infantry = {
		0 = GRA_INFANTRY_1
		1 = GRA_INFANTRY_2
		2 = GRA_INFANTRY_3
		3 = GRA_INFANTRY_4
	}

	sprite_cavalry = {
		0 = GRA_CAVALRY_1
		1 = GRA_CAVALRY_2
		2 = GRA_CAVALRY_3
		3 = GRA_CAVALRY_4
	}

	sprite_artillery = {
		0 = GRA_ARTILLERY_1
		1 = GRA_ARTILLERY_2
		2 = GRA_ARTILLERY_3
		3 = GRA_ARTILLERY_4
	}
}

Busilar_sprite_pack = {
	# Tests against every tag in game
	country_trigger = {
		tag = A29
	}

	sprite_infantry = {
		0 = NAV_INFANTRY_1
		1 = ETH_INFANTRY_2
		2 = NAV_INFANTRY_3
		3 = ETH_INFANTRY_4
	}

	sprite_cavalry = {
		0 = NAV_CAVALRY_1
		1 = ETH_CAVALRY_2
		2 = NAV_CAVALRY_3
		3 = ETH_CAVALRY_4
	}

	sprite_artillery = {
		0 = NAV_ARTILLERY_1
		1 = ETH_ARTILLERY_2
		2 = NAV_ARTILLERY_3
		3 = ETH_ARTILLERY_4
	}
}


Eborthil_sprite_pack = {
	# Tests against every tag in game
	country_trigger = {
		tag = A47
	}

	sprite_infantry = {
		0 = ETH_INFANTRY_1
		1 = NAV_INFANTRY_2
		2 = ETH_INFANTRY_3
		3 = NAV_INFANTRY_4
	}

	sprite_cavalry = {
		0 = ETH_CAVALRY_1
		1 = NAV_CAVALRY_2
		2 = ETH_CAVALRY_3
		3 = NAV_CAVALRY_4
	}

	sprite_artillery = {
		0 = ETH_ARTILLERY_1
		1 = NAV_ARTILLERY_2
		2 = ETH_ARTILLERY_3
		3 = NAV_ARTILLERY_4
	}
}

Damecrown_sprite_pack = {
	# Tests against every tag in game
	country_trigger = {
		tag = A25
	}

	sprite_infantry = {
		0 = HSA_INFANTRY_1
		1 = HSA_INFANTRY_2
		2 = HSA_INFANTRY_3
		3 = HSA_INFANTRY_4
	}

	sprite_cavalry = {
		0 = HSA_CAVALRY_1
		1 = HSA_CAVALRY_2
		2 = HSA_CAVALRY_3
		3 = HSA_CAVALRY_4
	}

	sprite_artillery = {
		0 = HSA_ARTILLERY_1
		1 = HSA_ARTILLERY_2
		2 = HSA_ARTILLERY_3
		3 = HSA_ARTILLERY_4
	}
}

Pearlsedge_sprite_pack = {
	# Tests against every tag in game
	country_trigger = {
		tag = A11
	}

	sprite_infantry = {
		0 = LEI_NEW_INFANTRY_1
		1 = GEN_INFANTRY_2
		2 = GEN_INFANTRY_3
		3 = GEN_INFANTRY_4
	}

	sprite_cavalry = {
		0 = LEI_NEW_CAVALRY_1
		1 = GEN_CAVALRY_2
		2 = GEN_CAVALRY_3
		3 = GEN_CAVALRY_4
	}

	sprite_artillery = {
		0 = LEI_NEW_ARTILLERY_1
		1 = GEN_ARTILLERY_2
		2 = GEN_ARTILLERY_3
		3 = GEN_ARTILLERY_4
	}
}

Ourdia_sprite_pack = {
	# Tests against every tag in game
	country_trigger = {
		OR = {
			tag = U16
			tag = Z07	#Dostanor
		}
	}

	sprite_infantry = {
		0 = POL_NEW_INFANTRY_1
		1 = POL_INFANTRY_2_catup
		2 = HUN_INFANTRY_3
		3 = HUN_INFANTRY_4
	}

	sprite_cavalry = {
		0 = BOS_CAVALRY_1
		1 = POL_CAVALRY_2_catup
		2 = HUN_CAVALRY_3
		3 = HUN_CAVALRY_4
	}

	sprite_artillery = {
		0 = BOS_ARTILLERY_1
		1 = POL_ARTILLERY_2_catup
		2 = HUN_ARTILLERY_3
		3 = HUN_ARTILLERY_4
	}
}

kheterata_sprite_pack = {
	# Tests against every tag in game
	country_trigger = {
		primary_culture = kheteratan
	}

	sprite_infantry = {
		0 = PER_NEW_INFANTRY_1
		1 = PER_NEW_INFANTRY_2
		2 = PER_NEW_INFANTRY_3
		3 = PER_NEW_INFANTRY_4
	}

	sprite_cavalry = {
		0 = PER_NEW_CAVALRY_1
		1 = PER_NEW_CAVALRY_2
		2 = PER_NEW_CAVALRY_3
		3 = PER_NEW_CAVALRY_4
	}

	sprite_artillery = {
		0 = PER_NEW_ARTILLERY_1
		1 = PER_NEW_ARTILLERY_2
		2 = PER_NEW_ARTILLERY_3
		3 = PER_NEW_ARTILLERY_4
	}
}

Elikhand_sprite_pack = {
	# Tests against every tag in game
	country_trigger = {
		OR = {
			tag = B15
            tag = B38
		}
	}

	sprite_infantry = {
		0 = TUR_NEW_INFANTRY_1
		1 = BOS_INFANTRY_2
		2 = BOS_INFANTRY_3
		3 = BOS_INFANTRY_4
	}

	sprite_cavalry = {
		0 = TUR_NEW_CAVALRY_1
		1 = BOS_CAVALRY_2
		2 = BOS_CAVALRY_3
		3 = BOS_CAVALRY_4
	}

	sprite_artillery = {
		0 = TUR_NEW_ARTILLERY_1
		1 = BOS_ARTILLERY_2
		2 = BOS_ARTILLERY_3
		3 = BOS_ARTILLERY_4
	}
}

Estaire_sprite_pack = {
	# Tests against every tag in game
	country_trigger = {
		OR = {
			tag = B08
			tag = B51
		}
	}

	sprite_infantry = {
		0 = ULM_INFANTRY_1
		1 = SPA_INFANTRY_2_catup
		2 = ULM_INFANTRY_3
		3 = ULM_INFANTRY_4
	}

	sprite_cavalry = {
		0 = ULM_CAVALRY_1
		1 = SPA_CAVALRY_2_catup
		2 = ULM_CAVALRY_3
		3 = ULM_CAVALRY_4
	}

	sprite_artillery = {
		0 = ULM_ARTILLERY_1
		1 = SPA_ARTILLERY_2_catup
		2 = ULM_ARTILLERY_3
		3 = ULM_ARTILLERY_4
	}
}

luciande_sprite_pack = {
	# Tests against every tag in game
	country_trigger = {
		OR = {
			tag = B11
			tag = B34
		}
	}

	sprite_infantry = {
		0 = POR_NEW_INFANTRY_1
		1 = HAB_INFANTRY_2_catup
		2 = POR_NEW_INFANTRY_3
		3 = NED_INFANTRY_4
	}

	sprite_cavalry = {
		0 = POR_NEW_CAVALRY_1
		1 = HAB_CAVALRY_2_catup
		2 = POR_NEW_CAVALRY_3
		3 = NED_CAVALRY_4
	}

	sprite_artillery = {
		0 = POR_NEW_ARTILLERY_1
		1 = HAB_ARTILLERY_2_catup
		2 = POR_NEW_ARTILLERY_3
		3 = NED_ARTILLERY_4
	}
}

Roilsard_sprite_pack = {
	# Tests against every tag in game
	country_trigger = {
		OR = {
			tag = A78
			tag = A57
			tag = A87
			tag = G91
		}
	}

	sprite_infantry = {
		0 = POR_NEW_INFANTRY_1
		1 = POR_NEW_INFANTRY_2
		2 = POR_NEW_INFANTRY_3
		3 = NED_INFANTRY_4
	}

	sprite_cavalry = {
		0 = POR_NEW_CAVALRY_1
		1 = POR_NEW_CAVALRY_2
		2 = POR_NEW_CAVALRY_3
		3 = NED_CAVALRY_4
	}

	sprite_artillery = {
		0 = POR_NEW_ARTILLERY_1
		1 = POR_NEW_ARTILLERY_2
		2 = POR_NEW_ARTILLERY_3
		3 = NED_ARTILLERY_4
	}
}

castanor_sprite_pack = {
	# Tests against every tag in game
	country_trigger = {
		OR = {
			tag = B32
			tag = Z34
		}
	}

	sprite_infantry = {
		0 = ROM_INFANTRY_1
		1 = ROM_INFANTRY_2
		2 = ROM_INFANTRY_3
		3 = ROM_INFANTRY_4
	}

	sprite_cavalry = {
		0 = ROM_CAVALRY_1
		1 = ROM_CAVALRY_2
		2 = ROM_CAVALRY_3
		3 = ROM_CAVALRY_4
	}

	sprite_artillery = {
		0 = ROM_ARTILLERY_1
		1 = ROM_ARTILLERY_2
		2 = ROM_ARTILLERY_3
		3 = ROM_ARTILLERY_4
	}
}

Castellyr_sprite_pack = {
	# Tests against every tag in game
	country_trigger = {
		OR = {
			tag = B31
			tag = B55
		}
	}

	sprite_infantry = {
		0 = MAI_INFANTRY_1
		1 = SIE_INFANTRY_2
		2 = BOH_INFANTRY_3
		3 = POR_NEW_INFANTRY_4
	}

	sprite_cavalry = {
		0 = MAI_CAVALRY_1
		1 = SIE_CAVALRY_2
		2 = BOH_CAVALRY_3
		3 = POR_NEW_CAVALRY_4
	}

	sprite_artillery = {
		0 = MAI_ARTILLERY_1
		1 = SIE_ARTILLERY_2
		2 = BOH_ARTILLERY_3
		3 = POR_NEW_ARTILLERY_4
	}
}

Themarenn_sprite_pack = {
	# Tests against every tag in game
	country_trigger = {
		tag = A95
	}

	sprite_infantry = {
		0 = WBG_INFANTRY_1
		1 = FRA_INFANTRY_2_evup
		2 = BAV_INFANTRY_3
		3 = POR_NEW_INFANTRY_4
	}

	sprite_cavalry = {
		0 = WBG_CAVALRY_1
		1 = FRA_CAVALRY_2_evup
		2 = BAV_CAVALRY_3
		3 = POR_NEW_CAVALRY_4
	}

	sprite_artillery = {
		0 = WBG_ARTILLERY_1
		1 = FRA_ARTILLERY_2_evup
		2 = BAV_ARTILLERY_3
		3 = POR_NEW_ARTILLERY_4
	}
}

Nurcestir_sprite_pack = {
	# Tests against every tag in game
	country_trigger = {
		OR = {
			tag = B05 
			tag = B53 
		}
	}

	sprite_infantry = {
		0 = BOS_INFANTRY_1
		1 = NED_INFANTRY_2_evup
		2 = FRA_NEW_INFANTRY_3
		3 = SWE_NEW_INFANTRY_4
	}

	sprite_cavalry = {
		0 = BOS_CAVALRY_1
		1 = NED_CAVALRY_2_evup
		2 = FRA_NEWCAV_CAVALRY_3
		3 = SWE_NEW_CAVALRY_4
	}

	sprite_artillery = {
		0 = BOS_ARTILLERY_1
		1 = NED_ARTILLERY_2_evup
		2 = SWI_ARTILLERY_3
		3 = SWE_NEW_ARTILLERY_4
	}
}

Reveria_sprite_pack = {
	# Tests against every tag in game
	country_trigger = {
		tag = A05
	}

	sprite_infantry = {
		0 = NED_INFANTRY_1
		1 = TVE_INFANTRY_2
		2 = TVE_INFANTRY_3
		3 = TVE_INFANTRY_4
	}

	sprite_cavalry = {
		0 = NED_CAVALRY_1
		1 = TVE_CAVALRY_2
		2 = TVE_CAVALRY_3
		3 = TVE_CAVALRY_4
	}

	sprite_artillery = {
		0 = NED_ARTILLERY_1
		1 = TVE_ARTILLERY_2
		2 = TVE_ARTILLERY_3
		3 = TVE_ARTILLERY_4
	}
}

Araionn_sprite_pack = {
	# Tests against every tag in game
	country_trigger = {
		OR = {
			tag = B09
			tag = B49
		}
	}

	sprite_infantry = {
		0 = MLO_INFANTRY_1
		1 = MLO_INFANTRY_2
		2 = NED_INFANTRY_3
		3 = NED_INFANTRY_4
	}

	sprite_cavalry = {
		0 = MLO_CAVALRY_1
		1 = MLO_CAVALRY_2
		2 = NED_CAVALRY_3
		3 = NED_CAVALRY_4
	}

	sprite_artillery = {
		0 = MLO_ARTILLERY_1
		1 = MLO_ARTILLERY_2
		2 = NED_ARTILLERY_3
		3 = NED_ARTILLERY_4
	}
}

Istralore_sprite_pack = {
	# Tests against every tag in game
	country_trigger = {
		tag = A45
	}

	sprite_infantry = {
		0 = BRI_INFANTRY_1
		1 = MAI_INFANTRY_2_catup
		2 = ENG_NEW_INFANTRY_3
		3 = ENG_NEW_INFANTRY_4
	}

	sprite_cavalry = {
		0 = BRI_CAVALRY_1
		1 = MAI_CAVALRY_2_catup
		2 = ENG_NEW_CAVALRY_3
		3 = ENG_NEW_CAVALRY_4
	}

	sprite_artillery = {
		0 = BRI_ARTILLERY_1
		1 = MAI_ARTILLERY_2_catup
		2 = ENG_NEW_ARTILLERY_3
		3 = ENG_NEW_ARTILLERY_4
	}
}

Rosande_sprite_pack = {
	# Tests against every tag in game
	country_trigger = {
		OR = {
			tag = B04
			tag = Z35
		}
	}

	sprite_infantry = {
		0 = HUN_INFANTRY_1
		1 = ARA_INFANTRY_2
		2 = ARA_INFANTRY_3
		3 = ARA_INFANTRY_4
	}

	sprite_cavalry = {
		0 = LIV_CAVALRY_1
		1 = ARA_CAVALRY_2
		2 = ARA_CAVALRY_3
		3 = ARA_CAVALRY_4
	}

	sprite_artillery = {
		0 = LIV_ARTILLERY_1
		1 = ARA_ARTILLERY_2
		2 = ARA_ARTILLERY_3
		3 = ARA_ARTILLERY_4
	}
}

Corvuria_sprite_pack = {
	# Tests against every tag in game
	country_trigger = {
		tag = A59
	}

	sprite_infantry = {
		0 = WAL_INFANTRY_1
		1 = WAL_INFANTRY_2
		2 = WAL_INFANTRY_3
		3 = WAL_INFANTRY_4
	}

	sprite_cavalry = {
		0 = WAL_CAVALRY_1
		1 = WAL_CAVALRY_2
		2 = WAL_CAVALRY_3
		3 = WAL_CAVALRY_4
	}

	sprite_artillery = {
		0 = WAL_ARTILLERY_1
		1 = WAL_ARTILLERY_2
		2 = WAL_ARTILLERY_3
		3 = WAL_ARTILLERY_4
	}
}

Asheniande_sprite_pack = {
	# Tests against every tag in game
	country_trigger = {
		tag = A60
	}

	sprite_infantry = {
		0 = SWE_NEW_INFANTRY_1
		1 = CRN_INFANTRY_2
		2 = SIC_INFANTRY_3
		3 = SIC_INFANTRY_4
	}

	sprite_cavalry = {
		0 = SWE_NEW_CAVALRY_1
		1 = CRN_CAVALRY_2
		2 = SIC_CAVALRY_3
		3 = SIC_CAVALRY_4
	}

	sprite_artillery = {
		0 = SWE_NEW_ARTILLERY_1
		1 = CRN_CAVALRY_2
		2 = SIC_ARTILLERY_3
		3 = SIC_ARTILLERY_4
	}
}



Adenica_sprite_pack = {
	# Tests against every tag in game
	country_trigger = {
		tag = B58
	}

	sprite_infantry = {
		0 = SWE_NEW_INFANTRY_1
		1 = ULM_INFANTRY_2_catup
		2 = NOV_INFANTRY_3
		3 = NOV_INFANTRY_4
	}

	sprite_cavalry = {
		0 = SWE_NEW_CAVALRY_1
		1 = ULM_CAVALRY_2_catup
		2 = NOV_CAVALRY_3
		3 = NOV_CAVALRY_4
	}

	sprite_artillery = {
		0 = SWE_NEW_ARTILLERY_1
		1 = ULM_ARTILLERY_2_catup
		2 = NOV_ARTILLERY_3
		3 = NOV_ARTILLERY_4
	}
}

Estallen_sprite_pack = {
	# Tests against every tag in game
	country_trigger = {
		tag = A93
	}

	sprite_infantry = {
		0 = POM_INFANTRY_1
		1 = SPA_INFANTRY_2_catup
		2 = ITA_INFANTRY_3
		3 = ITA_INFANTRY_4
	}

	sprite_cavalry = {
		0 = POM_CAVALRY_1
		1 = SPA_CAVALRY_2_catup
		2 = ITA_CAVALRY_3
		3 = ITA_CAVALRY_4
	}

	sprite_artillery = {
		0 = POM_ARTILLERY_1
		1 = SPA_ARTILLERY_2_catup
		2 = ITA_ARTILLERY_3
		3 = ITA_ARTILLERY_4
	}
}

Arbaran_sprite_pack = {
	# Tests against every tag in game
	country_trigger = {
		tag = A46
	}

	sprite_infantry = {
		0 = PAL_INFANTRY_1
		1 = TRI_INFANTRY_2_catup
		2 = PAL_INFANTRY_3
		3 = MLO_INFANTRY_4
	}

	sprite_cavalry = {
		0 = PAL_CAVALRY_1
		1 = TRI_CAVALRY_2_catup
		2 = PAL_CAVALRY_3
		3 = MLO_CAVALRY_4
	}

	sprite_artillery = {
		0 = PAL_ARTILLERY_1
		1 = TRI_ARTILLERY_2_catup
		2 = PAL_ARTILLERY_3
		3 = MLO_ARTILLERY_4
	}
}

Cestirande_sprite_pack = {
	# Tests against every tag in game
	country_trigger = {
		tag = A98
	}

	sprite_infantry = {
		0 = SAX_INFANTRY_1
		1 = SIC_INFANTRY_2
		2 = MLO_INFANTRY_3
		3 = PRU_NEW_INFANTRY_4
	}

	sprite_cavalry = {
		0 = SAX_CAVALRY_1
		1 = SIC_CAVALRY_2
		2 = MLO_CAVALRY_3
		3 = PRU_NEW_CAVALRY_4
	}

	sprite_artillery = {
		0 = SAX_ARTILLERY_1
		1 = SIC_ARTILLERY_2
		2 = MLO_ARTILLERY_3
		3 = PRU_NEW_ARTILLERY_4
	}
}

Esthil_sprite_pack = {
	# Tests against every tag in game
	country_trigger = {
		OR = {
			tag = B54
			tag = B20
		}
	}

	sprite_infantry = {
		0 = SAV_INFANTRY_1
		1 = SAV_INFANTRY_2
		2 = PAP_INFANTRY_3
		3 = PAP_INFANTRY_4
	}

	sprite_cavalry = {
		0 = SAV_CAVALRY_1
		1 = SAV_CAVALRY_2
		2 = PAP_CAVALRY_3
		3 = PAP_CAVALRY_4
	}

	sprite_artillery = {
		0 = SAV_ARTILLERY_1
		1 = SAV_ARTILLERY_2
		2 = PAP_ARTILLERY_3
		3 = PAP_ARTILLERY_4
	}
}

Magisterium_sprite_pack = {
	# Tests against every tag in game
	country_trigger = {
		tag = A85
	}

	sprite_infantry = {
		0 = SPA_INFANTRY_1
		1 = PAP_INFANTRY_2_catup
		2 = PAP_INFANTRY_3
		3 = PAP_INFANTRY_4
	}

	sprite_cavalry = {
		0 = SPA_CAVALRY_1
		1 = PAP_CAVALRY_2_catup
		2 = PAP_CAVALRY_3
		3 = PAP_CAVALRY_4
	}

	sprite_artillery = {
		0 = SPA_ARTILLERY_1
		1 = PAP_ARTILLERY_2_catup
		2 = PAP_ARTILLERY_3
		3 = PAP_ARTILLERY_4
	}
}

Esmaria_sprite_pack = {
	# Tests against every tag in game
	country_trigger = {
		tag = Z46
	}

	sprite_infantry = {
		0 = POM_INFANTRY_1
		1 = PAP_INFANTRY_2_catup
		2 = TRI_INFANTRY_3
		3 = KNI_INFANTRY_4
	}

	sprite_cavalry = {
		0 = POM_CAVALRY_1
		1 = PAP_CAVALRY_2_catup
		2 = TRI_CAVALRY_3
		3 = KNI_CAVALRY_4
	}

	sprite_artillery = {
		0 = POM_ARTILLERY_1
		1 = PAP_ARTILLERY_2_catup
		2 = TRI_ARTILLERY_3
		3 = KNI_ARTILLERY_4
	}
}

Leslinpar_sprite_pack = {
	# Tests against every tag in game
	country_trigger = {
		tag = A92
	}

	sprite_infantry = {
		0 = PRU_NEW_INFANTRY_1
		1 = PAP_INFANTRY_2_catup
		2 = PRU_NEW_INFANTRY_3
		3 = KNI_INFANTRY_4
	}

	sprite_cavalry = {
		0 = PRU_NEW_CAVALRY_1
		1 = PAP_CAVALRY_2_catup
		2 = PRU_NEW_CAVALRY_3
		3 = KNI_CAVALRY_4
	}

	sprite_artillery = {
		0 = PRU_NEW_ARTILLERY_1
		1 = PAP_ARTILLERY_2_catup
		2 = PRU_NEW_ARTILLERY_3
		3 = KNI_ARTILLERY_4
	}
}

Blademarches_sprite_pack = {
	# Tests against every tag in game
	country_trigger = {
		tag = B33
	}

	sprite_infantry = {
		0 = SAV_INFANTRY_1
		1 = KOL_INFANTRY_2_catup
		2 = GER_INFANTRY_3
		3 = SAV_INFANTRY_4
	}

	sprite_cavalry = {
		0 = SAV_CAVALRY_1
		1 = KOL_CAVALRY_2_catup
		2 = GER_CAVALRY_3
		3 = PAP_CAVALRY_4
	}

	sprite_artillery = {
		0 = SAV_ARTILLERY_1
		1 = KOL_ARTILLERY_2_catup
		2 = GER_ARTILLERY_3
		3 = SAV_ARTILLERY_4
	}
}

Tretun_sprite_pack = {
	# Tests against every tag in game
	country_trigger = {
		tag = Z05
	}

	sprite_infantry = {
		0 = FOI_INFANTRY_1
		1 = WBG_INFANTRY_2_catup
		3 = POL_NEW_INFANTRY_4
	}

	sprite_cavalry = {
		0 = FOI_CAVALRY_1
		1 = WBG_CAVALRY_2_catup

	}

	sprite_artillery = {
		0 = FOI_ARTILLERY_1
		1 = WBG_ARTILLERY_2_catup

	}
}

Anbenncost_sprite_pack = {
	# Tests against every tag in game
	country_trigger = {
		tag = A38
	}

	sprite_infantry = {
		0 = SWI_INFANTRY_1
		1 = SLZ_INFANTRY_2_catup
		2 = POM_INFANTRY_3
		3 = SIE_INFANTRY_4
	}

	sprite_cavalry = {
		0 = SWI_CAVALRY_1
		1 = SLZ_CAVALRY_2_catup
		2 = POM_CAVALRY_3
		3 = SIE_CAVALRY_4
	}

	sprite_artillery = {
		0 = SWI_ARTILLERY_1
		1 = SLZ_ARTILLERY_2_catup
		2 = POM_ARTILLERY_3
		3 = SIE_ARTILLERY_4
	}
}

Anbenland_sprite_pack = {
	# Tests against every tag in game
	country_trigger = {
		OR = {
			tag = B16
			tag = B52
		}
	}

	sprite_infantry = {
		0 = SIC_INFANTRY_1
		1 = DAN_INFANTRY_2_evup
		2 = TRI_INFANTRY_3
		3 = VEN_NEW_INFANTRY_4
	}

	sprite_cavalry = {
		0 = SIC_CAVALRY_1
		1 = DAN_CAVALRY_2_evup
		2 = TRI_CAVALRY_3
		3 = VEN_NEW_CAVALRY_4
	}

	sprite_artillery = {
		0 = SIC_ARTILLERY_1
		1 = DAN_ARTILLERY_2_evup
		2 = TRI_ARTILLERY_3
		3 = VEN_NEW_ARTILLERY_4
	}
}

Galeinn_sprite_pack = {
	# Tests against every tag in game
	country_trigger = {
		tag = A84
	}

	sprite_infantry = {
		0 = AUG_INFANTRY_1
		1 = PAL_INFANTRY_2_evup
		2 = WBG_INFANTRY_3
		3 = POL_NEW_INFANTRY_4
	}

	sprite_cavalry = {
		0 = AUG_CAVALRY_1
		1 = PAL_CAVALRY_2_evup
		2 = WBG_CAVALRY_3
	}

	sprite_artillery = {
		0 = AUG_ARTILLERY_1
		1 = PAL_ARTILLERY_2_evup
		2 = WBG_ARTILLERY_3
	}
}

Neckcliffe_sprite_pack = {
	# Tests against every tag in game
	country_trigger = {
		tag = A22
	}

	sprite_infantry = {
		0 = TRI_INFANTRY_1
		1 = SAX_INFANTRY_2_evup
		2 = AUG_INFANTRY_3
	}

	sprite_cavalry = {
		0 = TRI_CAVALRY_1
		1 = SAX_CAVALRY_2_evup
		2 = AUG_CAVALRY_3
	}

	sprite_artillery = {
		0 = TRI_ARTILLERY_1
		1 = SAX_ARTILLERY_2_evup
		2 = AUG_ARTILLERY_3
	}
}

Bennon_sprite_pack = {
	# Tests against every tag in game
	country_trigger = {
		tag = A39
	}

	sprite_infantry = {
		0 = WUR_INFANTRY_1
		1 = SWE_INFANTRY_2_evup
		2 = SAX_INFANTRY_3
	}

	sprite_cavalry = {
		0 = WUR_CAVALRY_1
		1 = SWE_CAVALRY_2_evup
		2 = SAX_CAVALRY_3
	}

	sprite_artillery = {
		0 = WUR_ARTILLERY_1
		1 = SWE_ARTILLERY_2_evup
		2 = SAX_ARTILLERY_3
	}
}

Celliande_sprite_pack = {
	# Tests against every tag in game
	country_trigger = {
		tag = A56
	}

	sprite_infantry = {
		0 = HAN_INFANTRY_1
		1 = WUR_INFANTRY_2_evup
		2 = HAN_INFANTRY_3
	}

	sprite_cavalry = {
		0 = HAN_CAVALRY_1
		1 = WUR_CAVALRY_2_evup
		2 = HAN_CAVALRY_3
	}

	sprite_artillery = {
		0 = HAN_ARTILLERY_1
		1 = WUR_ARTILLERY_2_evup
		2 = HAN_ARTILLERY_3
	}
}

ravenmarch_sprite_pack = {
	# Tests against every tag in game
	country_trigger = {
		OR = {
			tag = B48
			tag = B14
		}
	}

	sprite_infantry = {
		0 = SER_INFANTRY_1
		1 = SER_INFANTRY_2
		2 = SER_INFANTRY_3
		3 = SER_INFANTRY_4
	}

	sprite_cavalry = {
		0 = SER_CAVALRY_1
		1 = SER_CAVALRY_2
		2 = SER_CAVALRY_3
		3 = SER_CAVALRY_4
	}

	sprite_artillery = {
		0 = SER_ARTILLERY_1
		1 = SER_ARTILLERY_2
		2 = SER_ARTILLERY_3
		3 = SER_ARTILLERY_4
	}
}

rogieria_sprite_pack = {
	# Tests against every tag in game
	country_trigger = {
		OR = {
			tag = B07
			tag = B37
		}
	}

	sprite_infantry = {
		0 = BOH_INFANTRY_1
		1 = POM_INFANTRY_2_evup
		2 = WUR_INFANTRY_3
		3 = VEN_NEW_INFANTRY_4
	}

	sprite_cavalry = {
		0 = BOH_CAVALRY_1
		1 = POM_CAVALRY_2_evup
		2 = WUR_CAVALRY_3
		3 = VEN_NEW_CAVALRY_4
	}

	sprite_artillery = {
		0 = BOH_ARTILLERY_1
		1 = POM_ARTILLERY_2_evup
		2 = WUR_ARTILLERY_3
		3 = VEN_NEW_ARTILLERY_4
	}
}

Bravebros_sprite_pack = {
	# Tests against every tag in game
	country_trigger = {
		OR = {
			tag = B12
			tag = B39
		}
	}

	sprite_infantry = {
		0 = HAB_NEW_INFANTRY_1
		1 = HES_INFANTRY_2_evup
		2 = HAB_NEW_INFANTRY_3
		3 = HAB_NEW_INFANTRY_4
	}

	sprite_cavalry = {
		0 = HAB_NEW_CAVALRY_1
		1 = HES_CAVALRY_2_evup
		2 = HAB_NEW_CAVALRY_3
		3 = HAB_NEW_CAVALRY_4
	}

	sprite_artillery = {
		0 = HAB_NEW_ARTILLERY_1
		1 = HES_ARTILLERY_2_evup
		2 = HAB_NEW_ARTILLERY_3
		3 = HAB_NEW_ARTILLERY_4
	}
}

Stalbor_sprite_pack = {
	# Tests against every tag in game
	country_trigger = {
		OR = {
			tag = B47
			tag = B13
		}
	}

	sprite_infantry = {
		0 = ETH_INFANTRY_1
		1 = ETH_INFANTRY_2
		2 = SPA_INFANTRY_3
		3 = SPA_INFANTRY_4
	}

	sprite_cavalry = {
		0 = ETH_CAVALRY_1
		1 = ETH_CAVALRY_2
		2 = SPA_CAVALRY_3
		3 = SPA_CAVALRY_4
	}

	sprite_artillery = {
		0 = ETH_ARTILLERY_1
		1 = ETH_ARTILLERY_2
		2 = SPA_ARTILLERY_3
		3 = SPA_ARTILLERY_4
	}
}

Wesdam_sprite_pack = {
	# Tests against every tag in game
	country_trigger = {
		tag = A04
	}

	sprite_infantry = {
		0 = SIE_INFANTRY_1
		1 = SIE_INFANTRY_2
		2 = SIE_INFANTRY_3
		3 = FRA_NEW_INFANTRY_4
	}

	sprite_cavalry = {
		0 = SIE_CAVALRY_1
		1 = SIE_CAVALRY_2
		2 = SIE_CAVALRY_3
		3 = FRA_NEW_CAVALRY_4
	}

	sprite_artillery = {
		0 = SIE_ARTILLERY_1
		1 = SIE_ARTILLERY_2
		2 = SIE_ARTILLERY_3
		3 = FRA_NEW_ARTILLERY_4
	}
}

Ancardia_sprite_pack = {
	# Tests against every tag in game
	country_trigger = {
		OR = {
			tag = B06
			tag = B35
			tag = B60
		}
	}

	sprite_infantry = {
		0 = north_america_ENG_INFANTRY_1
		1 = north_america_ENG_INFANTRY_2
		2 = north_america_ENG_INFANTRY_3
		3 = north_america_FRA_INFANTRY_4
	}

	sprite_cavalry = {
		0 = north_america_ENG_CAVALRY_1
		1 = north_america_ENG_CAVALRY_2
		2 = north_america_ENG_CAVALRY_3
		3 = north_america_FRA_CAVALRY_4
	}

	sprite_artillery = {
		0 = north_america_ENG_ARTILLERY_1
		1 = north_america_ENG_ARTILLERY_2
		2 = north_america_ENG_ARTILLERY_3
		3 = north_america_FRA_ARTILLERY_4
	}
}

Woodwell_sprite_pack = {
	# Tests against every tag in game
	country_trigger = {
		tag = A88
	}

	sprite_infantry = {
		0 = north_america_ENG_INFANTRY_1
		1 = north_america_ENG_INFANTRY_2
		2 = north_america_ENG_INFANTRY_3
		3 = north_america_FRA_INFANTRY_4
	}

	sprite_cavalry = {
		0 = north_america_ENG_CAVALRY_1
		1 = north_america_ENG_CAVALRY_2
		2 = north_america_ENG_CAVALRY_3
		3 = north_america_FRA_CAVALRY_4
	}

	sprite_artillery = {
		0 = north_america_ENG_ARTILLERY_1
		1 = north_america_ENG_ARTILLERY_2
		2 = north_america_ENG_ARTILLERY_3
		3 = north_america_FRA_ARTILLERY_4
	}
}

Aranmas_sprite_pack = {
	# Tests against every tag in game
	country_trigger = {
		tag = A89
	}

	sprite_infantry = {
		0 = north_america_FRA_INFANTRY_1
		1 = north_america_FRA_INFANTRY_2
		2 = north_america_FRA_INFANTRY_3
		3 = north_america_ENG_INFANTRY_4
	}

	sprite_cavalry = {
		0 = north_america_FRA_CAVALRY_1
		1 = north_america_FRA_CAVALRY_2
		2 = north_america_FRA_CAVALRY_3
		3 = north_america_ENG_CAVALRY_4
	}

	sprite_artillery = {
		0 = north_america_FRA_ARTILLERY_1
		1 = north_america_FRA_ARTILLERY_2
		2 = north_america_FRA_ARTILLERY_3
		3 = north_america_ENG_ARTILLERY_4
	}
}

Brink_sprite_pack = {
	# Tests against every tag in game
	country_trigger = {
		tag = Z06
	}

	sprite_infantry = {
		0 = NAP_INFANTRY_1
		1 = NAP_INFANTRY_2
		2 = north_america_FRA_INFANTRY_3
		3 = north_america_ENG_INFANTRY_4
	}

	sprite_cavalry = {
		0 = NAP_CAVALRY_1
		1 = NAP_CAVALRY_2
		2 = north_america_FRA_CAVALRY_3
		3 = north_america_ENG_CAVALRY_4
	}

	sprite_artillery = {
		0 = NAP_ARTILLERY_1
		1 = NAP_ARTILLERY_2
		2 = north_america_FRA_ARTILLERY_3
		3 = north_america_ENG_ARTILLERY_4
	}
}

Konwell_sprite_pack = {
	# Tests against every tag in game
	country_trigger = {
		tag = A35
	}

	sprite_infantry = {
		0 = AQU_INFANTRY_1
		1 = AQU_INFANTRY_2
		2 = AQU_INFANTRY_3
		3 = AQU_INFANTRY_4
	}

	sprite_cavalry = {
		0 = AQU_CAVALRY_1
		1 = AQU_CAVALRY_2
		2 = AQU_CAVALRY_3
		3 = AQU_CAVALRY_4
	}

	sprite_artillery = {
		0 = AQU_ARTILLERY_1
		1 = AQU_ARTILLERY_2
		2 = AQU_ARTILLERY_3
		3 = AQU_ARTILLERY_4
	}
}

Wex_sprite_pack = {
	# Tests against every tag in game
	country_trigger = {
		tag = A30
	}

	sprite_infantry = {
		0 = PSK_INFANTRY_1
		1 = FEO_INFANTRY_2
		2 = PSK_INFANTRY_3
		3 = PSK_INFANTRY_4
	}

	sprite_cavalry = {
		0 = PSK_CAVALRY_1
		1 = FEO_CAVALRY_2
		2 = PSK_CAVALRY_3
		3 = PSK_CAVALRY_4
	}

	sprite_artillery = {
		0 = PSK_ARTILLERY_1
		1 = FEO_ARTILLERY_2
		2 = PSK_ARTILLERY_3
		3 = PSK_ARTILLERY_4
	}
}

Nimscodd_sprite_pack = {
	# Tests against every tag in game
	country_trigger = {
		OR = {
			tag = A06
			tag = A79
			tag = H30
		}
	}

	sprite_infantry = {
		0 = DMS_INFANTRY_1
		1 = IRE_INFANTRY_2
		2 = IRE_INFANTRY_3
		3 = FEO_INFANTRY_4
	}

	sprite_cavalry = {
		0 = DMS_CAVALRY_1
		1 = IRE_CAVALRY_2
		2 = IRE_CAVALRY_3
		3 = FEO_CAVALRY_4
	}

	sprite_artillery = {
		0 = DMS_ARTILLERY_1
		1 = IRE_ARTILLERY_2
		2 = IRE_ARTILLERY_3
		3 = FEO_ARTILLERY_4
	}
}

Exwes_sprite_pack = {
	# Tests against every tag in game
	country_trigger = {
		OR = {
			tag = A40
			tag = A76
		}
	}

	sprite_infantry = {
		0 = ULS_INFANTRY_1
		1 = DMS_INFANTRY_2
		2 = DMS_INFANTRY_3
		3 = DMS_INFANTRY_4
	}

	sprite_cavalry = {
		0 = ULS_CAVALRY_1
		1 = DMS_CAVALRY_2
		2 = DMS_CAVALRY_3
		3 = DMS_CAVALRY_4
	}

	sprite_artillery = {
		0 = ULS_ARTILLERY_1
		1 = DMS_ARTILLERY_2
		2 = DMS_ARTILLERY_3
		3 = DMS_ARTILLERY_4
	}
}

smallcountry_sprite_pack = {
	# Tests against every tag in game
	country_trigger = {
		tag = A97
	}

	sprite_infantry = {
		0 = KID_INFANTRY_1
		1 = ULS_INFANTRY_2
		2 = ULS_INFANTRY_3
		3 = CNN_INFANTRY_4
	}

	sprite_cavalry = {
		0 = KID_CAVALRY_1
		1 = ULS_CAVALRY_2
		2 = ULS_CAVALRY_3
		3 = CNN_CAVALRY_4
	}

	sprite_artillery = {
		0 = KID_ARTILLERY_1
		1 = ULS_ARTILLERY_2
		2 = ULS_ARTILLERY_3
		3 = CNN_ARTILLERY_4
	}
}

Indlebury_sprite_pack = {
	# Tests against every tag in game
	country_trigger = {
		OR = {
			tag = Z02	#indlebury
			tag = Z04	#magdalaire
		}
	}

	sprite_infantry = {
		0 = CNN_INFANTRY_1

	}

	sprite_cavalry = {
		0 = CNN_CAVALRY_1

	}

	sprite_artillery = {
		0 = CNN_ARTILLERY_1

	}
}

Portnamm_sprite_pack = {
	# Tests against every tag in game
	country_trigger = {
		OR = {
			tag = A19
			tag = A80
		}
	}

	sprite_infantry = {
		0 = IRE_INFANTRY_1
		1 = MTH_INFANTRY_2
		2 = MTH_INFANTRY_3
		3 = MTH_INFANTRY_4
	}

	sprite_cavalry = {
		0 = IRE_CAVALRY_1
		1 = MTH_CAVALRY_2
		2 = MTH_CAVALRY_3
		3 = MTH_CAVALRY_4
	}

	sprite_artillery = {
		0 = IRE_ARTILLERY_1
		1 = MTH_ARTILLERY_2
		2 = MTH_ARTILLERY_3
		3 = MTH_ARTILLERY_4
	}
}

Giberd_sprite_pack = {
	# Tests against every tag in game
	country_trigger = {
		tag = A81
	}

	sprite_infantry = {
		0 = IRE_INFANTRY_1
		1 = IRE_INFANTRY_2
		2 = MTH_INFANTRY_3
		3 = MTH_INFANTRY_4
	}

	sprite_cavalry = {
		0 = IRE_CAVALRY_1
		1 = IRE_CAVALRY_2
		2 = MTH_CAVALRY_3
		3 = MTH_CAVALRY_4
	}

	sprite_artillery = {
		0 = IRE_ARTILLERY_1
		1 = IRE_ARTILLERY_2
		2 = MTH_ARTILLERY_3
		3 = MTH_ARTILLERY_4
	}
}

#Leechmen_sprite_pack = {	#broken, likely due to conflict with black orc models
#	# Tests against every tag in game
#	country_trigger = {
#		primary_culture = leechmen
#	}
#
#	sprite_infantry = {
#		0 = HUR_INFANTRY_1
#	}
#
#	sprite_cavalry = {
#		0 = HUR_CAVALRY_1
#	}
#
#	sprite_artillery = {
#		0 = HUR_ARTILLERY_1
#	}
#}

Taychend_sprite_pack = {
	# Tests against every tag in game
	country_trigger = {
		primary_culture = kalavendhi
	}

	sprite_infantry = {
		0 = MLW_INFANTRY_1
		1 = MLW_INFANTRY_2
		2 = MLW_INFANTRY_3
		3 = MLW_INFANTRY_4
	}

	sprite_cavalry = {
		0 = MLW_CAVALRY_1
		1 = MLW_CAVALRY_2
		2 = MLW_CAVALRY_3
		3 = MLW_CAVALRY_4
	}

	sprite_artillery = {
		0 = MLW_ARTILLERY_1
		1 = MLW_ARTILLERY_2
		2 = MLW_ARTILLERY_3
		3 = MLW_ARTILLERY_4
	}
}

Larankar_sprite_pack = {
	# Tests against every tag in game
	country_trigger = {	
		primary_culture = larankarha
	}

	sprite_infantry = {
		0 = HED_INFANTRY_1
		1 = HED_INFANTRY_2
		2 = HED_INFANTRY_3
		3 = HED_INFANTRY_4
	}

	sprite_cavalry = {
		0 = HED_CAVALRY_1
		1 = HED_CAVALRY_2
		2 = HED_CAVALRY_3
		3 = HED_CAVALRY_4
	}

	sprite_artillery = {
		0 = HED_ARTILLERY_1
		1 = HED_ARTILLERY_2
		2 = HED_ARTILLERY_3
		3 = HED_ARTILLERY_4
	}
}

yodhanpir_sprite_pack = {
	# Tests against every tag in game
	country_trigger = {
		primary_culture = yodhanpir
	}

	sprite_infantry = {
		0 = AFG_INFANTRY_1
		1 = AFG_INFANTRY_2
		2 = AFG_INFANTRY_3
		3 = AFG_INFANTRY_4
	}

	sprite_cavalry = {
		0 = AFG_CAVALRY_1
		1 = AFG_CAVALRY_2
		2 = AFG_CAVALRY_3
		3 = AFG_CAVALRY_4
	}

	sprite_artillery = {
		0 = AFG_ARTILLERY_1
		1 = AFG_ARTILLERY_2
		2 = AFG_ARTILLERY_3
		3 = AFG_ARTILLERY_4
	}
}

Thekvrystana_sprite_pack = {
	# Tests against every tag in game
	country_trigger = {
		primary_culture = thekvrystana
	}

	sprite_infantry = {
		0 = CEY_INFANTRY_1
		1 = CEY_INFANTRY_2
		2 = CEY_INFANTRY_3
		3 = CEY_INFANTRY_4
	}

	sprite_cavalry = {
		0 = CEY_CAVALRY_1
		1 = CEY_CAVALRY_2
		2 = CEY_CAVALRY_3
		3 = CEY_CAVALRY_4
	}

	sprite_artillery = {
		0 = CEY_ARTILLERY_1
		1 = CEY_ARTILLERY_2
		2 = CEY_ARTILLERY_3
		3 = CEY_ARTILLERY_4
	}
}