
# Do not change tags in here without changing every other reference to them.
# If adding new dieties, make sure they are uniquely named.

the_dragon_and_the_skald =
{
	land_attrition = -0.1
	development_cost = -0.1
	
    allow = { 
		religion = skaldhyrric_faith
    }
	
	sprite = 14
	
	ai_will_do = {
		factor = 1
		modifier = {
			factor = 3
			tag = Z09
		}
		modifier = {
			factor = 2
			personality = ai_balanced
		}
		modifier = {
			factor = 1.2
			government = theocracy
		}
	}
}

voyage_of_the_north_raider =
{
	range = 0.15
	global_tariffs = 0.15
	
    allow = {
                religion = skaldhyrric_faith
    }
	
	sprite = 14
	
	ai_will_do = {
		factor = 1
		modifier = {
			factor = 5
			personality = ai_colonialist
		}	
		modifier = {
			factor = 0.5
			personality = ai_militarist
		}
	}
}

beralic_saga =
{
	legitimacy = 0.5
	infantry_power = 0.1
	
    allow = {
                religion = skaldhyrric_faith
    }
	sprite = 14
	
	ai_will_do = {
		factor = 1
		modifier = {
			factor = 3
			personality = ai_balanced
		}	
		modifier = {
			factor = 0.5
			government = republic
		}
		modifier = {
			factor = 2
			tag = Z08	#Bjarnrik
		}
	}
}

dirge_of_the_deep =
{
	naval_morale = 0.1
	global_sailors_modifier = 0.2
	
    allow = {
                religion = skaldhyrric_faith
    }
	sprite = 14
	
	ai_will_do = {
		factor = 1
		modifier = {
			factor = 2
			personality = ai_colonialist
		}	
		modifier = {
			factor = 1.5
			primary_culture = west_dalr
		}			
	}
}

treasure_of_the_golden_forest =
{
	global_tax_modifier = 0.1
	production_efficiency = 0.1
	
    allow = {
                religion = skaldhyrric_faith
    }
	sprite = 14
	
	ai_will_do = {
		factor = 1
		modifier = {
			factor = 2
			personality = ai_capitalist
		}
		modifier = {
			factor = 0.5
			personality = ai_militarist
		}	
	}
}

the_old_winter_lullaby =
{
	war_exhaustion = -0.05
	global_unrest = -2
	
    allow = { 
                religion = skaldhyrric_faith
    }
	sprite = 14
	
	ai_will_do = {
		factor = 1
		modifier = {
			factor = 3
			personality = ai_balanced
		}	
		modifier = {
			factor = 1.3
			government = monarchy
		}	
		modifier = {
			factor = 0.5
			government = republic
		}
		modifier = {
			factor = 2
			has_heir = no
			government = monarchy
			ruler_age = 40	#old ruler
		}
	}
}


gjalund_and_the_giantslayers =
{
	discipline = 0.05
	prestige = 1
	
    allow = {
                religion = skaldhyrric_faith
    }
	sprite = 14
	
	ai_will_do = {
		factor = 1
		modifier = {
			factor = 3
			personality = ai_militarist
		}	
		modifier = {
			factor = 0.5
			personality = ai_capitalist
		}
	}
}

master_boat_builders_of_far_gerudia_beyond =
{
	global_ship_cost = -0.1
	ship_durability = 0.05	
	
    allow = {
                religion = skaldhyrric_faith
    }
	sprite = 14
	
	ai_will_do = {
		factor = 1
		modifier = {
			factor = 1.5
			personality = ai_diplomat
		}	
		modifier = {
			factor = 1.3
			personality = ai_militarist
		}		
		modifier = {
			factor = 0.5
			personality = ai_capitalist
		}	
	}
}


tale_of_leif_snaketongue =
{
	spy_offence = 0.1
	core_creation = -0.1
	
    allow = {
		religion = skaldhyrric_faith
    }
	sprite = 14
	
	ai_will_do = {
		factor = 1
		modifier = {
			factor = 3
			personality = ai_diplomat
		}	
		modifier = {
			factor = 1.2
			personality = ai_militarist
		}	
	}
}