ruler_ynn_zodiac = {
	export_to_variable = {
		which = ynn_ruler_age #Ruler age when taking power
		value = trigger_value:ruler_age
	}
	
	export_to_variable = {
		which = ynn_current_year #Current Year
		value = trigger_value:is_year
	}
	subtract_variable = { which = ynn_current_year which = ynn_ruler_age }     #Birth Year
	set_variable = { game_start = 1444 }                            #Our starting point


	if = {
		limit = { check_variable = { ynn_current_year = 1444 } }     #If birth after or during 1444
		set_variable = { ruler_zodiac = 7 }                 #Will determine which blessing you get
		while = {
			limit = { NOT = { check_variable = { which = game_start which = ynn_current_year } } }
			change_variable = { game_start = 4 }
			change_variable = { ruler_zodiac = 1 }
			if = {
				limit = { check_variable = { ruler_zodiac = 17 } }
				set_variable = { ruler_zodiac = 1 }
			}
		}
		#If forest to apply the relevant modifier depending on varBlessings
		if = {
			limit = {
				check_variable = {
					which = ruler_zodiac
					value = 16
				}
			}
			add_ruler_modifier = {
				name = ynn_zodiac_16
				duration = -1
			}
		}
		else_if = {
			limit = {
				check_variable = {
					which = ruler_zodiac
					value = 15
				}
			}
			add_ruler_modifier = {
				name = ynn_zodiac_15
				duration = -1
			}
		}
		else_if = {
			limit = {
				check_variable = {
					which = ruler_zodiac
					value = 14
				}
			}
			add_ruler_modifier = {
				name = ynn_zodiac_14
				duration = -1
			}
		}
		else_if = {
			limit = {
				check_variable = {
					which = ruler_zodiac
					value = 13
				}
			}
			add_ruler_modifier = {
				name = ynn_zodiac_13
				duration = -1
			}
		}
		else_if = {
			limit = {
				check_variable = {
					which = ruler_zodiac
					value = 12
				}
			}
			add_ruler_modifier = {
				name = ynn_zodiac_12
				duration = -1
			}
		}
		else_if = {
			limit = {
				check_variable = {
					which = ruler_zodiac
					value = 11
				}
			}
			add_ruler_modifier = {
				name = ynn_zodiac_11
				duration = -1
			}
		}
		else_if = {
			limit = {
				check_variable = {
					which = ruler_zodiac
					value = 10
				}
			}
			add_ruler_modifier = {
				name = ynn_zodiac_10
				duration = -1
			}
		}
		else_if = {
			limit = {
				check_variable = {
					which = ruler_zodiac
					value = 9
				}
			}
			add_ruler_modifier = {
				name = ynn_zodiac_9
				duration = -1
			}
		}
		else_if = {
			limit = {
				check_variable = {
					which = ruler_zodiac
					value = 8
				}
			}
			add_ruler_modifier = {
				name = ynn_zodiac_8
				duration = -1
			}
		}
		else_if = {
			limit = {
				check_variable = {
					which = ruler_zodiac
					value = 7
				}
			}
			add_ruler_modifier = {
				name = ynn_zodiac_7
				duration = -1
			}
		}
		else_if = {
			limit = {
				check_variable = {
					which = ruler_zodiac
					value = 6
				}
			}
			add_ruler_modifier = {
				name = ynn_zodiac_6
				duration = -1
			}
		}
		else_if = {
			limit = {
				check_variable = {
					which = ruler_zodiac
					value = 5
				}
			}
			add_ruler_modifier = {
				name = ynn_zodiac_5
				duration = -1
			}
		}
		else_if = {
			limit = {
				check_variable = {
					which = ruler_zodiac
					value = 4
				}
			}
			add_ruler_modifier = {
				name = ynn_zodiac_4
				duration = -1
			}
		}
		else_if = {
			limit = {
				check_variable = {
					which = ruler_zodiac
					value = 3
				}
			}
			add_ruler_modifier = {
				name = ynn_zodiac_3
				duration = -1
			}
		}
		else_if = {
			limit = {
				check_variable = {
					which = ruler_zodiac
					value = 2
				}
			}
			add_ruler_modifier = {
				name = ynn_zodiac_2
				duration = -1
			}
		}
		else_if = {
			limit = {
				check_variable = {
					which = ruler_zodiac
					value = 1
				}
			}
			add_ruler_modifier = {
				name = ynn_zodiac_1
				duration = -1
			}
		}
	}
	else_if = { #Same thing as above but we count backward
		limit = { NOT = { check_variable = { ynn_current_year = 1444 } } }     #If birth before 1444
		set_variable = { ruler_zodiac = 6 }
		while = {
			limit = { check_variable = { which = game_start which = ynn_current_year } }
			subtract_variable = { game_start = 4 }
			subtract_variable = { ruler_zodiac = 1 }
			if = {
				limit = { NOT = { check_variable = { ruler_zodiac = 0 } } }
				set_variable = { ruler_zodiac = 16 }
			}
		}
		#If forest to apply the relevant modifier depending on varBlessings
		if = {
			limit = {
				check_variable = {
					which = ruler_zodiac
					value = 16
				}
			}
			add_ruler_modifier = {
				name = ynn_zodiac_16
				duration = -1
			}
		}
		else_if = {
			limit = {
				check_variable = {
					which = ruler_zodiac
					value = 15
				}
			}
			add_ruler_modifier = {
				name = ynn_zodiac_15
				duration = -1
			}
		}
		else_if = {
			limit = {
				check_variable = {
					which = ruler_zodiac
					value = 14
				}
			}
			add_ruler_modifier = {
				name = ynn_zodiac_14
				duration = -1
			}
		}
		else_if = {
			limit = {
				check_variable = {
					which = ruler_zodiac
					value = 13
				}
			}
			add_ruler_modifier = {
				name = ynn_zodiac_13
				duration = -1
			}
		}
		else_if = {
			limit = {
				check_variable = {
					which = ruler_zodiac
					value = 12
				}
			}
			add_ruler_modifier = {
				name = ynn_zodiac_12
				duration = -1
			}
		}
		else_if = {
			limit = {
				check_variable = {
					which = ruler_zodiac
					value = 11
				}
			}
			add_ruler_modifier = {
				name = ynn_zodiac_11
				duration = -1
			}
		}
		else_if = {
			limit = {
				check_variable = {
					which = ruler_zodiac
					value = 10
				}
			}
			add_ruler_modifier = {
				name = ynn_zodiac_10
				duration = -1
			}
		}
		else_if = {
			limit = {
				check_variable = {
					which = ruler_zodiac
					value = 9
				}
			}
			add_ruler_modifier = {
				name = ynn_zodiac_9
				duration = -1
			}
		}
		else_if = {
			limit = {
				check_variable = {
					which = ruler_zodiac
					value = 8
				}
			}
			add_ruler_modifier = {
				name = ynn_zodiac_8
				duration = -1
			}
		}
		else_if = {
			limit = {
				check_variable = {
					which = ruler_zodiac
					value = 7
				}
			}
			add_ruler_modifier = {
				name = ynn_zodiac_7
				duration = -1
			}
		}
		else_if = {
			limit = {
				check_variable = {
					which = ruler_zodiac
					value = 6
				}
			}
			add_ruler_modifier = {
				name = ynn_zodiac_6
				duration = -1
			}
		}
		else_if = {
			limit = {
				check_variable = {
					which = ruler_zodiac
					value = 5
				}
			}
			add_ruler_modifier = {
				name = ynn_zodiac_5
				duration = -1
			}
		}
		else_if = {
			limit = {
				check_variable = {
					which = ruler_zodiac
					value = 4
				}
			}
			add_ruler_modifier = {
				name = ynn_zodiac_4
				duration = -1
			}
		}
		else_if = {
			limit = {
				check_variable = {
					which = ruler_zodiac
					value = 3
				}
			}
			add_ruler_modifier = {
				name = ynn_zodiac_3
				duration = -1
			}
		}
		else_if = {
			limit = {
				check_variable = {
					which = ruler_zodiac
					value = 2
				}
			}
			add_ruler_modifier = {
				name = ynn_zodiac_2
				duration = -1
			}
		}
		else_if = {
			limit = {
				check_variable = {
					which = ruler_zodiac
					value = 1
				}
			}
			add_ruler_modifier = {
				name = ynn_zodiac_1
				duration = -1
			}
		}
	}
}

heir_ynn_zodiac = {
	export_to_variable = {
		which = ynn_heir_age #Ruler age when taking power
		value = trigger_value:heir_age
	}
	
	export_to_variable = {
		which = ynn_current_year #Current Year
		value = trigger_value:is_year
	}
	subtract_variable = { which = ynn_current_year which = ynn_heir_age }     #Birth Year
	set_variable = { game_start = 1444 }                            #Our starting point


	if = {
		limit = { check_variable = { ynn_current_year = 1444 } }     #If birth after or during 1444
		set_variable = { heir_zodiac = 7 }                 #Will determine which blessing you get
		while = {
			limit = { NOT = { check_variable = { which = game_start which = ynn_current_year } } }
			change_variable = { game_start = 4 }
			change_variable = { heir_zodiac = 1 }
			if = {
				limit = { check_variable = { heir_zodiac = 17 } }
				set_variable = { heir_zodiac = 1 }
			}
		}
		#If forest to apply the relevant modifier depending on varBlessings
		if = {
			limit = {
				check_variable = {
					which = heir_zodiac
					value = 16
				}
			}
			add_ruler_modifier = {
				name = ynn_zodiac_heir_16
				duration = -1
			}
		}
		else_if = {
			limit = {
				check_variable = {
					which = heir_zodiac
					value = 15
				}
			}
			add_ruler_modifier = {
				name = ynn_zodiac_heir_15
				duration = -1
			}
		}
		else_if = {
			limit = {
				check_variable = {
					which = heir_zodiac
					value = 14
				}
			}
			add_ruler_modifier = {
				name = ynn_zodiac_heir_14
				duration = -1
			}
		}
		else_if = {
			limit = {
				check_variable = {
					which = heir_zodiac
					value = 13
				}
			}
			add_ruler_modifier = {
				name = ynn_zodiac_heir_13
				duration = -1
			}
		}
		else_if = {
			limit = {
				check_variable = {
					which = heir_zodiac
					value = 12
				}
			}
			add_ruler_modifier = {
				name = ynn_zodiac_heir_12
				duration = -1
			}
		}
		else_if = {
			limit = {
				check_variable = {
					which = heir_zodiac
					value = 11
				}
			}
			add_ruler_modifier = {
				name = ynn_zodiac_heir_11
				duration = -1
			}
		}
		else_if = {
			limit = {
				check_variable = {
					which = heir_zodiac
					value = 10
				}
			}
			add_ruler_modifier = {
				name = ynn_zodiac_heir_10
				duration = -1
			}
		}
		else_if = {
			limit = {
				check_variable = {
					which = heir_zodiac
					value = 9
				}
			}
			add_ruler_modifier = {
				name = ynn_zodiac_heir_9
				duration = -1
			}
		}
		else_if = {
			limit = {
				check_variable = {
					which = heir_zodiac
					value = 8
				}
			}
			add_ruler_modifier = {
				name = ynn_zodiac_heir_8
				duration = -1
			}
		}
		else_if = {
			limit = {
				check_variable = {
					which = heir_zodiac
					value = 7
				}
			}
			add_ruler_modifier = {
				name = ynn_zodiac_heir_7
				duration = -1
			}
		}
		else_if = {
			limit = {
				check_variable = {
					which = heir_zodiac
					value = 6
				}
			}
			add_ruler_modifier = {
				name = ynn_zodiac_heir_6
				duration = -1
			}
		}
		else_if = {
			limit = {
				check_variable = {
					which = heir_zodiac
					value = 5
				}
			}
			add_ruler_modifier = {
				name = ynn_zodiac_heir_5
				duration = -1
			}
		}
		else_if = {
			limit = {
				check_variable = {
					which = heir_zodiac
					value = 4
				}
			}
			add_ruler_modifier = {
				name = ynn_zodiac_heir_4
				duration = -1
			}
		}
		else_if = {
			limit = {
				check_variable = {
					which = heir_zodiac
					value = 3
				}
			}
			add_ruler_modifier = {
				name = ynn_zodiac_heir_3
				duration = -1
			}
		}
		else_if = {
			limit = {
				check_variable = {
					which = heir_zodiac
					value = 2
				}
			}
			add_ruler_modifier = {
				name = ynn_zodiac_heir_2
				duration = -1
			}
		}
		else_if = {
			limit = {
				check_variable = {
					which = heir_zodiac
					value = 1
				}
			}
			add_ruler_modifier = {
				name = ynn_zodiac_heir_1
				duration = -1
			}
		}
	}
	else_if = { #Same thing as above but we count backward
		limit = { NOT = { check_variable = { ynn_current_year = 1444 } } }     #If birth before 1444
		set_variable = { heir_zodiac = 6 }
		while = {
			limit = { check_variable = { which = game_start which = ynn_current_year } }
			subtract_variable = { game_start = 4 }
			subtract_variable = { heir_zodiac = 1 }
			if = {
				limit = { check_variable = { heir_zodiac = 0 } }
				set_variable = { heir_zodiac = 16 }
			}
		}
		#If forest to apply the relevant modifier depending on varBlessings
		if = {
			limit = {
				check_variable = {
					which = heir_zodiac
					value = 16
				}
			}
			add_ruler_modifier = {
				name = ynn_zodiac_heir_16
				duration = -1
			}
		}
		else_if = {
			limit = {
				check_variable = {
					which = heir_zodiac
					value = 15
				}
			}
			add_ruler_modifier = {
				name = ynn_zodiac_heir_15
				duration = -1
			}
		}
		else_if = {
			limit = {
				check_variable = {
					which = heir_zodiac
					value = 14
				}
			}
			add_ruler_modifier = {
				name = ynn_zodiac_heir_14
				duration = -1
			}
		}
		else_if = {
			limit = {
				check_variable = {
					which = heir_zodiac
					value = 13
				}
			}
			add_ruler_modifier = {
				name = ynn_zodiac_heir_13
				duration = -1
			}
		}
		else_if = {
			limit = {
				check_variable = {
					which = heir_zodiac
					value = 12
				}
			}
			add_ruler_modifier = {
				name = ynn_zodiac_heir_12
				duration = -1
			}
		}
		else_if = {
			limit = {
				check_variable = {
					which = heir_zodiac
					value = 11
				}
			}
			add_ruler_modifier = {
				name = ynn_zodiac_heir_11
				duration = -1
			}
		}
		else_if = {
			limit = {
				check_variable = {
					which = heir_zodiac
					value = 10
				}
			}
			add_ruler_modifier = {
				name = ynn_zodiac_heir_10
				duration = -1
			}
		}
		else_if = {
			limit = {
				check_variable = {
					which = heir_zodiac
					value = 9
				}
			}
			add_ruler_modifier = {
				name = ynn_zodiac_heir_9
				duration = -1
			}
		}
		else_if = {
			limit = {
				check_variable = {
					which = heir_zodiac
					value = 8
				}
			}
			add_ruler_modifier = {
				name = ynn_zodiac_heir_8
				duration = -1
			}
		}
		else_if = {
			limit = {
				check_variable = {
					which = heir_zodiac
					value = 7
				}
			}
			add_ruler_modifier = {
				name = ynn_zodiac_heir_7
				duration = -1
			}
		}
		else_if = {
			limit = {
				check_variable = {
					which = heir_zodiac
					value = 6
				}
			}
			add_ruler_modifier = {
				name = ynn_zodiac_heir_6
				duration = -1
			}
		}
		else_if = {
			limit = {
				check_variable = {
					which = heir_zodiac
					value = 5
				}
			}
			add_ruler_modifier = {
				name = ynn_zodiac_heir_5
				duration = -1
			}
		}
		else_if = {
			limit = {
				check_variable = {
					which = heir_zodiac
					value = 4
				}
			}
			add_ruler_modifier = {
				name = ynn_zodiac_heir_4
				duration = -1
			}
		}
		else_if = {
			limit = {
				check_variable = {
					which = heir_zodiac
					value = 3
				}
			}
			add_ruler_modifier = {
				name = ynn_zodiac_heir_3
				duration = -1
			}
		}
		else_if = {
			limit = {
				check_variable = {
					which = heir_zodiac
					value = 2
				}
			}
			add_ruler_modifier = {
				name = ynn_zodiac_heir_2
				duration = -1
			}
		}
		else_if = {
			limit = {
				check_variable = {
					which = heir_zodiac
					value = 1
				}
			}
			add_ruler_modifier = {
				name = ynn_zodiac_heir_1
				duration = -1
			}
		}
	}
}